[
  {
    "id": 1,
    "name": "Wild Horseradish",
    "how_to_collect": "Foraging in spring / From mixed seeds",
    "iconSrc": "/icons/Wild_Horseradish.png",
    "iconAlt": "Wild Horseradish icon"
  },
  {
    "id": 2,
    "name": "Daffodil",
    "how_to_collect": "Foraging in spring / From mixed seeds",
    "iconSrc": "/icons/Daffodil.png",
    "iconAlt": "Daffodil icon"
  },
  {
    "id": 3,
    "name": "Leek",
    "how_to_collect": "Foraging in spring / From mixed seeds",
    "iconSrc": "/icons/Leek.png",
    "iconAlt": "Leek icon"
  },
  {
    "id": 4,
    "name": "Dandelion",
    "how_to_collect": "Foraging in spring / From mixed seeds",
    "iconSrc": "/icons/Dandelion.png",
    "iconAlt": "Dandelion icon"
  },
  {
    "id": 5,
    "name": "Parsnip",
    "how_to_collect": "in Spring from Parsnip seed",
    "iconSrc": "/icons/Parsnip.png",
    "iconAlt": "Parsnip icon"
  },
  {
    "id": 6,
    "name": "Cave Carrot",
    "how_to_collect": "Foraging in the Mines, from Garbage Cans",
    "iconSrc": "/icons/Cave_Carrot.png",
    "iconAlt": "Cave Carrot icon"
  },
  {
    "id": 7,
    "name": "Coconut",
    "how_to_collect": "Foraging in the Desert",
    "iconSrc": "/icons/Coconut.png",
    "iconAlt": "Coconut icon"
  },
  {
    "id": 8,
    "name": "Cactus Fruit",
    "how_to_collect": "Foraging in the Desert",
    "iconSrc": "/icons/Cactus_Fruit.png",
    "iconAlt": "Cactus Fruit icon"
  },
  {
    "id": 9,
    "name": "Banana",
    "how_to_collect": "From Banana Tree",
    "iconSrc": "/icons/Banana.png",
    "iconAlt": "Banana icon"
  },
  {
    "id": 10,
    "name": "Sap",
    "how_to_collect": "Trees and  Slimes",
    "iconSrc": "/icons/Sap.png",
    "iconAlt": "Sap icon"
  },
  {
    "id": 11,
    "name": "Large Egg (white)",
    "how_to_collect": "",
    "iconSrc": "/icons/Large_Egg.png",
    "iconAlt": "Large white egg icon"
  },
  {
    "id": 12,
    "name": "Egg (white)",
    "how_to_collect": "",
    "iconSrc": "/icons/Egg.png",
    "iconAlt": "White egg icon"
  },
  {
    "id": 13,
    "name": "Egg (brown)",
    "how_to_collect": "",
    "iconSrc": "/icons/Brown_Egg.png",
    "iconAlt": "Brown egg icon"
  },
  {
    "id": 14,
    "name": "Large Egg (brown)",
    "how_to_collect": "",
    "iconSrc": "/icons/Large_Brown_Egg.png",
    "iconAlt": "Large brown egg icon"
  },
  {
    "id": 15,
    "name": "Milk",
    "how_to_collect": "",
    "iconSrc": "/icons/Milk.png",
    "iconAlt": "Milk icon"
  },
  {
    "id": 16,
    "name": "Large Milk",
    "how_to_collect": "",
    "iconSrc": "/icons/Large_Milk.png",
    "iconAlt": "Large milk icon"
  },
  {
    "id": 17,
    "name": "Green Bean",
    "how_to_collect": "",
    "iconSrc": "/icons/Green_Bean.png",
    "iconAlt": "Green bean icon"
  },
  {
    "id": 18,
    "name": "Cauliflower",
    "how_to_collect": "",
    "iconSrc": "/icons/Cauliflower.png",
    "iconAlt": "Cauliflower icon"
  },
  {
    "id": 19,
    "name": "Potato",
    "how_to_collect": "",
    "iconSrc": "/icons/Potato.png",
    "iconAlt": "Potato icon"
  },
  {
    "id": 20,
    "name": "Garlic",
    "how_to_collect": "",
    "iconSrc": "/icons/Garlic.png",
    "iconAlt": "Garlic icon"

  },
  {
    "id": 21,
    "name": "Kale",
    "how_to_collect": "",
    "iconSrc": "/icons/Kale.png",
    "iconAlt": "Kale icon"
  },
  {
    "id": 22,
    "name": "Rhubarb",
    "how_to_collect": "",
    "iconSrc": "/icons/Rhubarb.png",
    "iconAlt": "Rhubarb icon"
  },
  {
    "id": 23,
    "name": "Melon",
    "how_to_collect": "",
    "iconSrc": "/icons/Melon.png",
    "iconAlt": "Melon icon"
  },
  {
    "id": 24,
    "name": "Tomato",
    "how_to_collect": "",
    "iconSrc": "/icons/Tomato.png",
    "iconAlt": "Tomato icon"
  },
  {
    "id": 25,
    "name": "Morel",
    "how_to_collect": ""
  },
  {
    "id": 26,
    "name": "Blueberry",
    "how_to_collect": ""
  },
  {
    "id": 27,
    "name": "Fiddlehead Fern",
    "how_to_collect": ""
  },
  {
    "id": 28,
    "name": "Hot Pepper",
    "how_to_collect": ""
  },
  {
    "id": 29,
    "name": "Wheat",
    "how_to_collect": ""
  },
  {
    "id": 30,
    "name": "Raddish",
    "how_to_collect": ""
  },
  {
    "id": 31,
    "name": "Red Cabbage",
    "how_to_collect": ""
  },
  {
    "id": 32,
    "name": "Starfruit",
    "how_to_collect": ""
  },
  {
    "id": 33,
    "name": "Corn",
    "how_to_collect": ""
  },
  {
    "id": 34,
    "name": "Unmilled Rice",
    "how_to_collect": ""
  },
  {
    "id": 35,
    "name": "Eggplant",
    "how_to_collect": ""
  },
  {
    "id": 36,
    "name": "Artichoke",
    "how_to_collect": ""
  },
  {
    "id": 37,
    "name": "Pumpkin",
    "how_to_collect": ""
  },
  {
    "id": 38,
    "name": "Bok Choy",
    "how_to_collect": ""
  },
  {
    "id": 39,
    "name": "Yam",
    "how_to_collect": ""
  },
  {
    "id": 40,
    "name": "Chanterelle",
    "how_to_collect": ""
  },
  {
    "id": 41,
    "name": "Cranberries",
    "how_to_collect": ""
  },
  {
    "id": 42,
    "name": "Hollly",
    "how_to_collect": ""
  },
  {
    "id": 43,
    "name": "Beet",
    "how_to_collect": ""
  },
  {
    "id": 44,
    "name": "Ostrich Egg",
    "how_to_collect": ""
  },
  {
    "id": 45,
    "name": "Salmonberry",
    "how_to_collect": ""
  },
  {
    "id": 46,
    "name": "Amaranth",
    "how_to_collect": ""
  },
  {
    "id": 47,
    "name": "Pale Ale",
    "how_to_collect": ""
  },
  {
    "id": 48,
    "name": "Hops",
    "how_to_collect": ""
  },
  {
    "id": 49,
    "name": "Void Egg",
    "how_to_collect": ""
  },
  {
    "id": 50,
    "name": "Mayonnaise",
    "how_to_collect": ""
  },
  {
    "id": 51,
    "name": "Duck Mayonnaise",
    "how_to_collect": ""
  },
  {
    "id": 52,
    "name": "Void Mayonnaise",
    "how_to_collect": ""
  },
  {
    "id": 53,
    "name": "Clay",
    "how_to_collect": ""
  },
  {
    "id": 54,
    "name": "Copper Bar",
    "how_to_collect": ""
  },
  {
    "id": 55,
    "name": "Iron Bar",
    "how_to_collect": ""
  },
  {
    "id": 56,
    "name": "Gold Bar",
    "how_to_collect": ""
  },
  {
    "id": 57,
    "name": "Iridium Bar",
    "how_to_collect": ""
  },
  {
    "id": 58,
    "name": "Refined Quartz",
    "how_to_collect": ""
  },
  {
    "id": 59,
    "name": "Honey",
    "how_to_collect": ""
  },
  {
    "id": 60,
    "name": "Pickles",
    "how_to_collect": ""
  },
  {
    "id": 61,
    "name": "Jelly",
    "how_to_collect": ""
  },
  {
    "id": 62,
    "name": "Beer",
    "how_to_collect": ""
  },
  {
    "id": 63,
    "name": "Wine",
    "how_to_collect": ""
  },
  {
    "id": 64,
    "name": "Juice",
    "how_to_collect": ""
  },
  {
    "id": 65,
    "name": "Clam",
    "how_to_collect": ""
  },
  {
    "id": 66,
    "name": "Poppy",
    "how_to_collect": ""
  },
  {
    "id": 67,
    "name": "Copper Ore",
    "how_to_collect": ""
  },
  {
    "id": 68,
    "name": "Iron Ore",
    "how_to_collect": ""
  },
  {
    "id": 69,
    "name": "Coal",
    "how_to_collect": ""
  },
  {
    "id": 70,
    "name": "Gold Ore",
    "how_to_collect": ""
  },
  {
    "id": 71,
    "name": "Iridium Ore",
    "how_to_collect": ""
  },
  {
    "id": 72,
    "name": "Wood",
    "how_to_collect": ""
  },
  {
    "id": 73,
    "name": "Stone",
    "how_to_collect": ""
  },
  {
    "id": 74,
    "name": "Nautilus Shell",
    "how_to_collect": ""
  },
  {
    "id": 75,
    "name": "Coral",
    "how_to_collect": ""
  },
  {
    "id": 76,
    "name": "Rainbow Shell",
    "how_to_collect": ""
  },
  {
    "id": 77,
    "name": "Spice Berry",
    "how_to_collect": ""
  },
  {
    "id": 78,
    "name": "Sea Urchin",
    "how_to_collect": ""
  },
  {
    "id": 79,
    "name": "Grape",
    "how_to_collect": ""
  },
  {
    "id": 80,
    "name": "Spring Onion",
    "how_to_collect": ""
  },
  {
    "id": 81,
    "name": "Strawberry",
    "how_to_collect": ""
  },
  {
    "id": 82,
    "name": "Sweet Pea",
    "how_to_collect": ""
  },
  {
    "id": 83,
    "name": "Common Mushroom",
    "how_to_collect": ""
  },
  {
    "id": 84,
    "name": "Wild Plum",
    "how_to_collect": ""
  },
  {
    "id": 85,
    "name": "Hazelnut",
    "how_to_collect": ""
  },
  {
    "id": 86,
    "name": "Blackberry",
    "how_to_collect": ""
  },
  {
    "id": 87,
    "name": "Winter Root",
    "how_to_collect": ""
  },
  {
    "id": 88,
    "name": "Crystal Fruit",
    "how_to_collect": ""
  },
  {
    "id": 89,
    "name": "Snow Yam",
    "how_to_collect": ""
  },
  {
    "id": 90,
    "name": "Sweet Gem Berry",
    "how_to_collect": ""
  },
  {
    "id": 91,
    "name": "Crocus",
    "how_to_collect": ""
  },
  {
    "id": 92,
    "name": "Red Mushroom",
    "how_to_collect": ""
  },
  {
    "id": 93,
    "name": "Sunflower",
    "how_to_collect": ""
  },
  {
    "id": 94,
    "name": "Purple Mushroom",
    "how_to_collect": ""
  },
  {
    "id": 95,
    "name": "Cheese",
    "how_to_collect": ""
  },
  {
    "id": 96,
    "name": "Goat Cheese",
    "how_to_collect": ""
  },
  {
    "id": 97,
    "name": "Cloth",
    "how_to_collect": ""
  },
  {
    "id": 98,
    "name": "Truffle",
    "how_to_collect": ""
  },
  {
    "id": 99,
    "name": "Truffle Oil",
    "how_to_collect": ""
  },
  {
    "id": 100,
    "name": "Coffee Bean",
    "how_to_collect": ""
  },
  {
    "id": 101,
    "name": "Goat Milk",
    "how_to_collect": ""
  },
  {
    "id": 102,
    "name": "Large Goat Milk",
    "how_to_collect": ""
  },
  {
    "id": 103,
    "name": "Wool",
    "how_to_collect": ""
  },
  {
    "id": 104,
    "name": "Duck egg",
    "how_to_collect": ""
  },
  {
    "id": 105,
    "name": "Duck Feather",
    "how_to_collect": ""
  },
  {
    "id": 106,
    "name": "Caviar",
    "how_to_collect": ""
  },
  {
    "id": 107,
    "name": "Rabbit's Foot",
    "how_to_collect": ""
  },
  {
    "id": 108,
    "name": "Aged Roe",
    "how_to_collect": ""
  },
  {
    "id": 109,
    "name": "Ancient Fruit",
    "how_to_collect": ""
  },
  {
    "id": 110,
    "name": "Mead",
    "how_to_collect": ""
  },
  {
    "id": 111,
    "name": "Tulip",
    "how_to_collect": ""
  },
  {
    "id": 112,
    "name": "Summer Spangle",
    "how_to_collect": ""
  },
  {
    "id": 113,
    "name": "Fairy Rose",
    "how_to_collect": ""
  },
  {
    "id": 114,
    "name": "Blue Jazz",
    "how_to_collect": ""
  },
  {
    "id": 115,
    "name": "Apple",
    "how_to_collect": ""
  },
  {
    "id": 116,
    "name": "Green Tea",
    "how_to_collect": ""
  },
  {
    "id": 117,
    "name": "Apricot",
    "how_to_collect": ""
  },
  {
    "id": 118,
    "name": "Orange",
    "how_to_collect": ""
  },
  {
    "id": 119,
    "name": "Peach",
    "how_to_collect": ""
  },
  {
    "id": 120,
    "name": "Pomegranate",
    "how_to_collect": ""
  },
  {
    "id": 121,
    "name": "Cherry",
    "how_to_collect": ""
  },
  {
    "id": 122,
    "name": "Bug Meat",
    "how_to_collect": ""
  },
  {
    "id": 123,
    "name": "Hardwood",
    "how_to_collect": ""
  },
  {
    "id": 124,
    "name": "Maple Syrup",
    "how_to_collect": ""
  },
  {
    "id": 125,
    "name": "Oak Resin",
    "how_to_collect": ""
  },
  {
    "id": 126,
    "name": "Pine Tar",
    "how_to_collect": ""
  },
  {
    "id": 127,
    "name": "Slime",
    "how_to_collect": ""
  },
  {
    "id": 128,
    "name": "Bat Wing",
    "how_to_collect": ""
  },
  {
    "id": 129,
    "name": "Solar Essence",
    "how_to_collect": ""
  },
  {
    "id": 130,
    "name": "Void Essence",
    "how_to_collect": ""
  },
  {
    "id": 131,
    "name": "Fiber",
    "how_to_collect": ""
  },
  {
    "id": 132,
    "name": "Battery Pack",
    "how_to_collect": ""
  },
  {
    "id": 133,
    "name": "Dinosaur Mayonnaise",
    "how_to_collect": ""
  },
  {
    "id": 134,
    "name": "Roe",
    "how_to_collect": ""
  },
  {
    "id": 135,
    "name": "Squid Ink",
    "how_to_collect": ""
  },
  {
    "id": 136,
    "name": "Tea Leaves",
    "how_to_collect": ""
  },
  {
    "id": 137,
    "name": "Ginger",
    "how_to_collect": ""
  },
  {
    "id": 138,
    "name": "Taro Root",
    "how_to_collect": ""
  },
  {
    "id": 139,
    "name": "Pineapple",
    "how_to_collect": ""
  },
  {
    "id": 140,
    "name": "Mango",
    "how_to_collect": ""
  },
  {
    "id": 141,
    "name": "Cinder Shard",
    "how_to_collect": ""
  },
  {
    "id": 142,
    "name": "Magma Cap",
    "how_to_collect": ""
  },
  {
    "id": 143,
    "name": "Bone Fragment",
    "how_to_collect": ""
  },
  {
    "id": 144,
    "name": "Radioactive Ore",
    "how_to_collect": ""
  },
  {
    "id": 145,
    "name": "Radioactive Bar",
    "how_to_collect": ""
  }
]