[
  {
    "name": "Alex",
    "iconSrc": "/icons/portraits/Alex.png",
    "iconAlt": "Alex portrait icon",
    "birthday": [
      {
        "date": "Summer 13",
        "iconSrc": "/icons/36px-Summer.png"
      }
    ],
    "can_be_partner": "yes",
    "gifts": [
      {
        "name": "Complete Breakfast",
        "iconSrc": "/icons/gifts/36px-Complete_Breakfast.png",
        "iconAlt": "Complete Breakfast icon"
      },
      {
        "name": "Salmon Dinner",
        "iconSrc": "/icons/gifts/36px-Salmon_Dinner.png",
        "iconAlt": "Salmon Dinner icon"
      },
      {
        "name": "Egg",
        "iconSrc": "/icons/gifts/36px-Egg.png",
        "iconAlt": "Egg icon"
      }
    ],
    "loved_movies": [
      {
        "title": "It Howls In The Rain",
        "posterIcon": "/icons/movies/36px-'It_Howls_In_The_Rain'.png"
      },
      {
        "title": "Wumbus",
        "posterIcon": "/icons/movies/36px-'Wumbus'.png"
      }
    ],
    "disliked_movies": [
      {
        "title": "Natural Wonders: Exploring Our Vibrant World",
        "posterIcon": "/icons/movies/36px-'Natural_Wonders_Exploring_Our_Vibrant_World'.png"
      }
    ],
    "loved_movie_snacks": [
      {
        "name": "Salmon Burger",
        "iconSrc": "/icons/snacks/36px-Salmon_Burger.png",
        "iconAlt": "Salmon Burger icon"
      },
      {
        "name": "Stardrop Sorbet",
        "iconSrc": "/icons/snacks/36px-Stardrop_Sorbet.png",
        "iconAlt": "Stardrop Sorbet icon"
      }
    ],
    "dislike_movie_snacks": [
      {
        "name": "Black Licorice",
        "iconSrc": "/icons/snacks/36px-Black_Licorice.png",
        "iconAlt": "Black Licorice icon"
      },
      {
        "name": "Cotton Candy",
        "iconSrc": "/icons/snacks/36px-Cotton_Candy.png",
        "iconAlt": "Cotton Candy icon"
      },
      {
        "name": "Jawbreaker",
        "iconSrc": "/icons/snacks/36px-Jawbreaker.png",
        "iconAlt": "Jawbreaker icon"
      },
      {
        "name": "Joja Cola",
        "iconSrc": "/icons/snacks/36px-Joja_Cola.png",
        "iconAlt": "Joja Cola icon"
      },
      {
        "name": "Joja Corn",
        "iconSrc": "/icons/snacks/36px-Joja_Corn.png",
        "iconAlt": "Joja Corn icon"
      },
      {
        "name": "Rock Candy",
        "iconSrc": "/icons/snacks/36px-Rock_Candy.png",
        "iconAlt": "Rock Candy icon"
      },
      {
        "name": "Sour Slimes",
        "iconSrc": "/icons/snacks/36px-Sour_Slimes.png",
        "iconAlt": "Sour Slimes icon"
      }
    ]
  },
  {
    "name": "Elliott",
    "iconSrc": "/icons/portraits/Elliott.png",
    "iconAlt": "Elliott portrait icon",
    "birthday": [
      {
        "date": "Fall 5",
        "iconSrc": "/icons/36px-Fall.png"
      }
    ],
    "can_be_partner": "yes",
    "gifts": [
      {
        "name": "Duck Feather",
        "iconSrc": "/icons/gifts/36px-Duck_Feather.png",
        "iconAlt": "Duck Feather icon"
      },
      {
        "name": "Crab Cakes",
        "iconSrc": "/icons/gifts/36px-Crab_Cakes.png",
        "iconAlt": "Crab Cakes icon"
      },
      {
        "name": "Lobster",
        "iconSrc": "/icons/gifts/36px-Lobster.png",
        "iconAlt": "Lobster icon"
      },
      {
        "name": "Pomegranate",
        "iconSrc": "/icons/gifts/36px-Pomegranate.png",
        "iconAlt": "Pomegranate icon"
      },
      {
        "name": "Tom Kha Soup",
        "iconSrc": "/icons/gifts/36px-Tom_Kha_Soup.png",
        "iconAlt": " Tom Kha Soup icon"
      },
      {
        "name": "Squid Ink",
        "iconSrc": "/icons/gifts/36px-Squid_Ink.png",
        "iconAlt": "Squid Ink icon"
      },
      {
        "name": "Squid",
        "iconSrc": "/icons/gifts/36px-Squid.png",
        "iconAlt": "Squid icon"
      }
    ],
    "loved_movies": [
      {
        "title": "Mysterium",
        "posterIcon": "/icons/movies/36px-'Mysterium'.png"
      }
    ],
    "disliked_movies": [
      {
        "title": "Journey Of The Prairie King: The Motion Picture",
        "posterIcon": "/icons/movies/36px-'Journey_Of_The_Prairie_King_The_Motion_Picture'.png"
      }
    ],
    "loved_movie_snacks": [
      {
        "name": "Cappuccino Mousse Cake",
        "iconSrc": "/icons/snacks/36px-Cappuccino_Mousse_Cake.png",
        "iconAlt": "Cappuccino Mousse Cake icon"
      },
      {
        "name": "Stardrop Sorbet",
        "iconSrc": "/icons/snacks/36px-Stardrop_Sorbet.png",
        "iconAlt": "Stardrop Sorbet icon"
      },
      {
        "name": "Truffle Popcorn",
        "iconSrc": "/icons/snacks/36px-Truffle_Popcorn.png",
        "iconAlt": "Truffle Popcorn icon"
      }
    ],
    "dislike_movie_snacks": [
      {
        "name": "Apple Slices",
        "iconSrc": "/icons/snacks/36px-Apple_Slices.png",
        "iconAlt": "Apple Slices icon"
      },
      {
        "name": "Chocolate Popcorn",
        "iconSrc": "/icons/snacks/36px-Chocolate_Popcorn.png",
        "iconAlt": "Chocolate Popcorn icon"
      },
      {
        "name": "Hummus Snack Pack",
        "iconSrc": "/icons/snacks/36px-Hummus_Snack_Pack.png",
        "iconAlt": "Hummus Snack Pack icon"
      },
      {
        "name": "Ice Cream Sandwich",
        "iconSrc": "/icons/snacks/36px-Ice_Cream_Sandwich.png",
        "iconAlt": "Ice Cream Sandwich icon"
      },
      {
        "name": "Jasmine Tea",
        "iconSrc": "/icons/snacks/36px-Jasmine_Tea.png",
        "iconAlt": "Jasmine Tea icon"
      },
      {
        "name": "Kale_Smoothie",
        "iconSrc": "/icons/snacks/36px-Kale_Smoothie.png",
        "iconAlt": "Kale Smoothie icon"
      },
      {
        "name": "Panzanella Salad",
        "iconSrc": "/icons/snacks/36px-Panzanella_Salad.png",
        "iconAlt": "Panzanella Salad icon"
      },
      {
        "name": "Salmon Burger",
        "iconSrc": "/icons/snacks/36px-Salmon_Burger.png",
        "iconAlt": "Salmon Burger icon"
      },
      {
        "name": "Star Cookie",
        "iconSrc": "/icons/snacks/36px-Star_Cookie.png",
        "iconAlt": "Star Cookie icon"
      }
    ]
  },
  {
    "name": "Harvey",
    "iconSrc": "/icons/portraits/Harvey.png",
    "iconAlt": "Harvey portrait icon",
    "birthday": [
      {
        "date": "Winter 14",
        "iconSrc": "/icons/36px-Winter.png"
      }
    ],
    "can_be_partner": "yes",
    "gifts": [
      {
        "name": "Coffee",
        "iconSrc": "/icons/gifts/36px-Coffee.png",
        "iconAlt": "Coffee icon"
      },
      {
        "name": "Pickles",
        "iconSrc": "/icons/gifts/36px-Pickles.png",
        "iconAlt": "Pickles icon"
      },
      {
        "name": "Super Meal",
        "iconSrc": "/icons/gifts/36px-Super_Meal.png",
        "iconAlt": "Super Meal icon"
      },

      {
        "name": "Truffle Oil",
        "iconSrc": "/icons/gifts/36px-Truffle_Oil.png",
        "iconAlt": "Truffle Oil icon"
      },

      {
        "name": "Wine",
        "iconSrc": "/icons/gifts/36px-Wine.png",
        "iconAlt": "Wine icon"
      }
    ],
    "loved_movies": [
      {
        "title": "The Miracle At Coldstar Ranch",
        "posterIcon": "/icons/movies/36px-'The_Miracle_At_Coldstar_Ranch'.png"
      },
      {
        "title": "The Zuzu City Express",
        "posterIcon": "/icons/movies/36px-'The_Zuzu_City_Express'.png"
      }
    ],
    "disliked_movies": [
      {
        "title": "It Howls In The Rain",
        "posterIcon": "/icons/movies/36px-'It_Howls_In_The_Rain'.png'"
      },
      {
        "title": "Journey Of The Prairie King: The Motion Picture",
        "posterIcon": "/icons/movies/36px-'Journey_Of_The_Prairie_King_The_Motion_Picture'.png"
      },
      {
        "title": "Mysterium",
        "posterIcon": "/icons/movies/36px-'Mysterium'.png"
      }
    ],
    "loved_movie_snacks": [
      {
        "name": "Apple Slices",
        "iconSrc": "/icons/snacks/36px-Apple_Slices.png",
        "iconAlt": "Apple Slices icon"
      },
      {
        "name": "Stardrop Sorbet",
        "iconSrc": "/icons/snacks/36px-Stardrop_Sorbet.png",
        "iconAlt": "Stardrop Sorbet icon"
      },
      {
        "name": "Jasmine Tea",
        "iconSrc": "/icons/snacks/36px-Jasmine_Tea.png",
        "iconAlt": "Jasmine Tea icon"
      }
    ],
    "dislike_movie_snacks": [
      {
        "name": "Everything else",
        "iconSrc": "",
        "iconAlt": ""
      }
    ]
  },
  {
    "name": "Sam",
    "iconSrc": "/icons/portraits/Sam.png",
    "iconAlt": "Sam portrait icon",
    "birthday": [
      {
        "date": "Summer 17",
        "iconSrc": "/icons/36px-Summer.png"
      }
    ],
    "can_be_partner": "yes",
    "gifts": [
      {
        "name": "Cactus Fruit",
        "iconSrc": "/icons/gifts/36px-Cactus_Fruit.png",
        "iconAlt": "Cactus Fruit icon"
      },
      {
        "name": "Maple Bar",
        "iconSrc": "/icons/gifts/36px-Maple_Bar.png",
        "iconAlt": "Maple Bar icon"
      },
      {
        "name": "Pizza",
        "iconSrc": "/icons/gifts/36px-Pizza.png",
        "iconAlt": "Pizza icon"
      },
      {
        "name": "Tigerseye",
        "iconSrc": "/icons/gifts/36px-Tigerseye.png",
        "iconAlt": "Tigerseye icon"
      }
    ],
    "loved_movies": [
      {
        "title": "Wumbus",
        "posterIcon": "/icons/movies/36px-'Wumbus'.png"
      }
    ],
    "disliked_movies": [
      {
        "title": "The Miracle At Coldstar Ranch",
        "posterIcon": "/icons/movies/36px-'The_Miracle_At_Coldstar_Ranch'.png"
      },
      {
        "title": "The Zuzu City Express",
        "posterIcon": "/icons/movies/36px-'The_Zuzu_City_Express'.png"
      }
    ],
    "loved_movie_snacks": [
      {
        "name": "Personal Pizza",
        "iconSrc": "/icons/snacks/36px-Personal_Pizza.png",
        "iconAlt": "Personal Pizza icon"
      },
      {
        "name": "Stardrop Sorbet",
        "iconSrc": "/icons/snacks/36px-Stardrop_Sorbet.png",
        "iconAlt": "Stardrop Sorbet icon"
      }
    ],
    "dislike_movie_snack": "Apple Slices\n Black Licorice\n Cappuccino Mousse Cake\n Hummus Snack Pack\n Jasmine Tea\n JojaCorn\n Kale Smoothie\n Panzanella Salad\nTruffle Popcorn",
    "dislike_movie_snacks": [
      {
        "name": "Apple Slices",
        "iconSrc": "/icons/snacks/36px-Apple_Slices.png",
        "iconAlt": "Apple Slices icon"
      },
      {
        "name": "Black Licorice",
        "iconSrc": "/icons/snacks/36px-Black_Licorice.png",
        "iconAlt": "Black Licorice icon"
      },
      {
        "name": "Hummus Snack Pack",
        "iconSrc": "/icons/snacks/36px-Hummus_Snack_Pack.png",
        "iconAlt": "Hummus Snack Pack icon"
      },
      {
        "name": "Cappuccino Mousse Cake",
        "iconSrc": "/icons/snacks/36px-Cappuccino_Mousse_Cake.png",
        "iconAlt": "Cappuccino Mousse Cake icon"
      },
      {
        "name": "Jasmine Tea",
        "iconSrc": "/icons/snacks/36px-Jasmine_Tea.png",
        "iconAlt": "Jasmine Tea icon"
      },
      {
        "name": "Kale_Smoothie",
        "iconSrc": "/icons/snacks/36px-Kale_Smoothie.png",
        "iconAlt": "Kale Smoothie icon"
      },
      {
        "name": "Panzanella Salad",
        "iconSrc": "/icons/snacks/36px-Panzanella_Salad.png",
        "iconAlt": "Panzanella Salad icon"
      },
      {
        "name": "Salmon Burger",
        "iconSrc": "/icons/snacks/36px-Salmon_Burger.png",
        "iconAlt": "Salmon Burger icon"
      },
      {
        "name": "JojaCorn",
        "iconSrc": "/icons/snacks/36px-JojaCorn.png",
        "iconAlt": "JojaCorn icon"
      },
      {
        "name": "Truffle Popcorn",
        "iconSrc": "/icons/snacks/36px-Truffle_Popcorn.png",
        "iconAlt": "Truffle Popcorn icon"
      }
    ]
  },
  {
    "name": "Sebastian",
    "iconSrc": "/icons/portraits/Sebastian.png",
    "iconAlt": "Sebastian portrait icon",
    "birthday": [
      {
        "date": "Winter 10",
        "iconSrc": "/icons/36px-Winter.png"
      }
    ],
    "can_be_partner": "yes",
    "gifts": [
      {
        "name": "Frozen Tear",
        "iconSrc": "/icons/gifts/36px-Frozen_Tear.png",
        "iconAlt": "Frozen Tear icon"
      },
      {
        "name": "Obsidian",
        "iconSrc": "/icons/gifts/36px-Obsidian.png",
        "iconAlt": "Obsidian icon"
      },
      {
        "name": "Pumpkin Soup",
        "iconSrc": "/icons/gifts/36px-Pumpkin_Soup.png",
        "iconAlt": "Pumpkin Soup icon"
      },

      {
        "name": "Sashimi",
        "iconSrc": "/icons/gifts/36px-Sashimi.png",
        "iconAlt": "Sashimi icon"
      },

      {
        "name": "Void Egg",
        "iconSrc": "/icons/gifts/36px-Void_Egg.png",
        "iconAlt": "Void Egg icon"
      }
    ],
    "loved_movies": [
      {
        "title": "It Howls In The Rain",
        "posterIcon": "/icons/movies/36px-'It_Howls_In_The_Rain'.png"
      },
      {
        "title": "Mysterium",
        "posterIcon": "/icons/movies/36px-'Mysterium'.png"
      }
    ],
    "disliked_movies": [
      {
        "title": "The Brave Little Sapling",
        "posterIcon": "/icons/movies/36px-'The_Brave_Little_Sapling'.png"
      },
      {
        "title": "The Miracle At Coldstar Ranch",
        "posterIcon": "/icons/movies/36px-'The_Miracle_At_Coldstar_Ranch'.png"
      },
      {
        "title": "The Zuzu City Express",
        "posterIcon": "/icons/movies/36px-'The_Zuzu_City_Express'.png"
      }
    ],
    "loved_movie_snacks": [
      {
        "name": "Jasmine Tea",
        "iconSrc": "/icons/snacks/36px-Jasmine_Tea.png",
        "iconAlt": "Jasmine Tea icon"
      },
      {
        "name": "Stardrop Sorbet",
        "iconSrc": "/icons/snacks/36px-Stardrop_Sorbet.png",
        "iconAlt": "Stardrop Sorbet icon"
      }
    ],
    "dislike_movie_snacks": [
      {
        "name": "Black Licorice",
        "iconSrc": "/icons/snacks/36px-Black_Licorice.png",
        "iconAlt": "Black Licorice icon"
      },
      {
        "name": "Cappuccino Mousse Cake",
        "iconSrc": "/icons/snacks/36px-Cappuccino_Mousse_Cake.png",
        "iconAlt": "Cappuccino Mousse Cake icon"
      },
      {
        "name": "Joja Cola",
        "iconSrc": "/icons/snacks/36px-Joja_Cola.png",
        "iconAlt": "Joja Cola icon"
      },
      {
        "name": "Kale_Smoothie",
        "iconSrc": "/icons/snacks/36px-Kale_Smoothie.png",
        "iconAlt": "Kale Smoothie icon"
      },
      {
        "name": "Panzanella Salad",
        "iconSrc": "/icons/snacks/36px-Panzanella_Salad.png",
        "iconAlt": "Panzanella Salad icon"
      },
      {
        "name": "JojaCorn",
        "iconSrc": "/icons/snacks/36px-JojaCorn.png",
        "iconAlt": "JojaCorn icon"
      }
    ]
  },
  {
    "name": "Shane",
    "iconSrc": "/icons/portraits/Shane.png",
    "iconAlt": "Shane portrait icon",
    "birthday": [
      {
        "date": "Spring 20",
        "iconSrc": "/icons/36px-Spring.png"
      }
    ],
    "can_be_partner": "yes",
    "gifts": [
      {
        "name": "Beer",
        "iconSrc": "/icons/gifts/36px-Beer.png",
        "iconAlt": "Beer icon"
      },
      {
        "name": "Hot Pepper",
        "iconSrc": "/icons/gifts/36px-Hot_Pepper.png",
        "iconAlt": "Hot Pepper icon"
      },
      {
        "name": "Pepper Poppers",
        "iconSrc": "/icons/gifts/36px-Pepper_Poppers.png",
        "iconAlt": "Pepper Poppers icon"
      },
      {
        "name": "Pizza",
        "iconSrc": "/icons/gifts/36px-Pizza.png",
        "iconAlt": "Pizza icon"
      }
    ],

    "loved_movies": [
      {
        "title": "It Howls In The Rain",
        "posterIcon": "/icons/movies/36px-'It_Howls_In_The_Rain'.png"
      },
      {
        "title": "Wumbus",
        "posterIcon": "/icons/movies/36px-'Wumbus'.png"
      }
    ],
    "disliked_movies": [
      {
        "title": "The Brave Little Sapling",
        "posterIcon": "/icons/movies/36px-'The_Brave_Little_Sapling'.png"
      },
      {
        "title": "The Miracle At Coldstar Ranch",
        "posterIcon": "/icons/movies/36px-'The_Miracle_At_Coldstar_Ranch'.png"
      },
      {
        "title": "The Zuzu City Express",
        "posterIcon": "/icons/movies/36px-'The_Zuzu_City_Express'.png"
      }
    ],
    "loved_movie_snacks": [
      {
        "name": "Hummus Snack Pack",
        "iconSrc": "/icons/snacks/36px-Hummus_Snack_Pack.png",
        "iconAlt": "Hummus Snack Pack icon"
      },
      {
        "name": "Stardrop Sorbet",
        "iconSrc": "/icons/snacks/36px-Stardrop_Sorbet.png",
        "iconAlt": "Stardrop Sorbet icon"
      },

      {
        "name": "Joja Cola",
        "iconSrc": "/icons/snacks/36px-Joja_Cola.png",
        "iconAlt": "Joja Cola icon"
      },

      {
        "name": "JojaCorn",
        "iconSrc": "/icons/snacks/36px-JojaCorn.png",
        "iconAlt": "JojaCorn icon"
      },

      {
        "name": "Nachos",
        "iconSrc": "/icons/snacks/36px-Nachos.png",
        "iconAlt": "Nachos icon"
      },

      {
        "name": "Personal Pizza",
        "iconSrc": "/icons/snacks/36px-Personal_Pizza.png",
        "iconAlt": "Personal Pizza icon"
      }
    ],
    "dislike_movie_snacks": [
      {
        "name": "Apple Slices",
        "iconSrc": "/icons/snacks/36px-Apple_Slices.png",
        "iconAlt": "Apple Slices icon"
      },
      {
        "name": "Black Licorice",
        "iconSrc": "/icons/snacks/36px-Black_Licorice.png",
        "iconAlt": "Black Licorice icon"
      },
      {
        "name": "Cappuccino Mousse Cake",
        "iconSrc": "/icons/snacks/36px-Cappuccino_Mousse_Cake.png",
        "iconAlt": "Cappuccino Mousse Cake icon"
      },
      {
        "name": "Kale_Smoothie",
        "iconSrc": "/icons/snacks/36px-Kale_Smoothie.png",
        "iconAlt": "Kale Smoothie icon"
      },
      {
        "name": "Panzanella Salad",
        "iconSrc": "/icons/snacks/36px-Panzanella_Salad.png",
        "iconAlt": "Panzanella Salad icon"
      },
      {
        "name": "Truffle Popcorn",
        "iconSrc": "/icons/snacks/36px-Truffle_Popcorn.png",
        "iconAlt": "Truffle Popcorn icon"
      }
    ]
  },
  {
    "name": "Abigail",
    "iconSrc": "/icons/portraits/Abigail.png",
    "iconAlt": "Abigail portrait icon",
    "birthday": [
      {
        "date": "Fall 13",
        "iconSrc": "/icons/36px-Fall.png"
      }
    ],
    "can_be_partner": "yes",
    "gifts": [
      {
        "name": "Amethyst",
        "iconSrc": "/icons/gifts/36px-Amethyst.png",
        "iconAlt": "Amethyst icon"
      },
      {
        "name": "Banana Pudding",
        "iconSrc": "/icons/gifts/36px-Banana_Pudding.png",
        "iconAlt": "Banana Pudding icon"
      },
      {
        "name": "Blackberry_Cobbler",
        "iconSrc": "/icons/gifts/36px-Blackberry_Cobbler.png",
        "iconAlt": "Blackberry Cobbler icon"
      },

      {
        "name": "Chocolate Cake",
        "iconSrc": "/icons/gifts/36px-Chocolate_Cake.png",
        "iconAlt": "Chocolate Cake icon"
      },
      {
        "name": "Pufferfish",
        "iconSrc": "/icons/gifts/36px-Pufferfish.png",
        "iconAlt": "Pufferfish icon"
      },
      {
        "name": "Spicy Eel",
        "iconSrc": "/icons/gifts/36px-Spicy_Eel.png",
        "iconAlt": "Spicy Eel icon"
      }
    ],
    "loved_movies": [
      {
        "title": "It Howls In The Rain",
        "posterIcon": "/icons/movies/36px-'It_Howls_In_The_Rain'.png"
      },
      {
        "title": "Mysterium",
        "posterIcon": "/icons/movies/36px-'Mysterium'.png"
      }
    ],

    "disliked_movies": [
      {
        "title": "The Miracle At Coldstar Ranch",
        "posterIcon": "/icons/movies/36px-'The_Miracle_At_Coldstar_Ranch'.png"
      },
      {
        "title": "The Zuzu City Express",
        "posterIcon": "/icons/movies/36px-'The_Zuzu_City_Express'.png"
      }
    ],
    "loved_movie_snacks": [
      {
        "name": "Rock Candy",
        "iconSrc": "/icons/snacks/36px-Rock_Candy.png",
        "iconAlt": "Rock Candy icon"
      },
      {
        "name": "Stardrop Sorbet",
        "iconSrc": "/icons/snacks/36px-Stardrop_Sorbet.png",
        "iconAlt": "Stardrop Sorbet icon"
      }
    ],
    "dislike_movie_snacks": [
      {
        "name": "Black Licorice",
        "iconSrc": "/icons/snacks/36px-Black_Licorice.png",
        "iconAlt": "Black Licorice icon"
      },
      {
        "name": "Hummus Snack Pack",
        "iconSrc": "/icons/snacks/36px-Hummus_Snack_Pack.png",
        "iconAlt": "Hummus Snack Pack icon"
      },
      {
        "name": "Kale_Smoothie",
        "iconSrc": "/icons/snacks/36px-Kale_Smoothie.png",
        "iconAlt": "Kale Smoothie icon"
      },
      {
        "name": "Panzanella Salad",
        "iconSrc": "/icons/snacks/36px-Panzanella_Salad.png",
        "iconAlt": "Panzanella Salad icon"
      },
      {
        "name": "Jasmine Tea",
        "iconSrc": "/icons/snacks/36px-Jasmine_Tea.png",
        "iconAlt": "Jasmine Tea icon"
      },
      {
        "name": "Joja Cola",
        "iconSrc": "/icons/snacks/36px-Joja_Cola.png",
        "iconAlt": "Joja Cola icon"
      },

      {
        "name": "JojaCorn",
        "iconSrc": "/icons/snacks/36px-JojaCorn.png",
        "iconAlt": "JojaCorn icon"
      }
    ]
  },
  {
    "name": "Emily",
    "iconSrc": "/icons/portraits/Emily.png",
    "iconAlt": "Emily portrait icon",
    "birthday": [
      {
        "date": "Spring 27",
        "iconSrc": "/icons/36px-Spring.png"
      }
    ],
    "can_be_partner": "yes",
    "gifts": [
      {
        "name": "Amethyst",
        "iconSrc": "/icons/gifts/36px-Amethyst.png",
        "iconAlt": "Amethyst icon"
      },
      {
        "name": "Aquamarine",
        "iconSrc": "/icons/gifts/36px-Aquamarine.png",
        "iconAlt": "Aquamarine icon"
      },
      {
        "name": "Cloth",
        "iconSrc": "/icons/gifts/36px-Cloth.png",
        "iconAlt": "Cloth icon"
      },

      {
        "name": "Emerald",
        "iconSrc": "/icons/gifts/36px-Emerald.png",
        "iconAlt": "Emerald icon"
      },
      {
        "name": "Jade",
        "iconSrc": "/icons/gifts/36px-Jade.png",
        "iconAlt": "Jade icon"
      },
      {
        "name": "Ruby",
        "iconSrc": "/icons/gifts/36px-Ruby.png",
        "iconAlt": "Ruby icon"
      },

      {
        "name": "Survival Burger",
        "iconSrc": "/icons/gifts/36px-Survival_Burger.png",
        "iconAlt": "Survival Burger icon"
      },

      {
        "name": "Topaz",
        "iconSrc": "/icons/gifts/36px-Topaz.png",
        "iconAlt": "Topaz icon"
      },

      {
        "name": "Wool",
        "iconSrc": "/icons/gifts/36px-Wool.png",
        "iconAlt": "Wool icon"
      }
    ],
    "loved_movies": [
      {
        "title": "The Miracle At Coldstar Ranch",
        "posterIcon": "/icons/movies/36px-'The_Miracle_At_Coldstar_Ranch'.png"
      }
    ],
    "disliked_movies": [
      {
        "title": "It Howls In The Rain",
        "posterIcon": "/icons/movies/36px-'It_Howls_In_The_Rain'.png"
      },
      {
        "title": "Mysterium",
        "posterIcon": "/icons/movies/36px-'Mysterium'.png"
      }
    ],
    "loved_movie_snacks": [
      {
        "name": "Kale_Smoothie",
        "iconSrc": "/icons/snacks/36px-Kale_Smoothie.png",
        "iconAlt": "Kale Smoothie icon"
      },
      {
        "name": "Stardrop Sorbet",
        "iconSrc": "/icons/snacks/36px-Stardrop_Sorbet.png",
        "iconAlt": "Stardrop Sorbet icon"
      }
    ],
    "dislike_movie_snacks": [
      {
        "name": "Black Licorice",
        "iconSrc": "/icons/snacks/36px-Black_Licorice.png",
        "iconAlt": "Black Licorice icon"
      },
      {
        "name": "Fries",
        "iconSrc": "/icons/snacks/36px-Fries.png",
        "iconAlt": "Fries icon"
      },
      {
        "name": "Joja Cola",
        "iconSrc": "/icons/snacks/36px-Joja_Cola.png",
        "iconAlt": "Joja Cola icon"
      },
      {
        "name": "Joja Corn",
        "iconSrc": "/icons/snacks/36px-Joja_Corn.png",
        "iconAlt": "Joja Corn icon"
      },
      {
        "name": "Nachos",
        "iconSrc": "/icons/snacks/36px-Nachos.png",
        "iconAlt": "Nachos icon"
      },

      {
        "name": "Personal Pizza",
        "iconSrc": "/icons/snacks/36px-Personal_Pizza.png",
        "iconAlt": "Personal Pizza icon"
      },

      {
        "name": "Popcorn",
        "iconSrc": "/icons/snacks/36px-Popcorn.png",
        "iconAlt": "Popcorn icon"
      },

      {
        "name": "Salted Peanuts",
        "iconSrc": "/icons/snacks/36px-Salted_Peanuts.png",
        "iconAlt": "Salted Peanuts icon"
      }
    ]
  },
  {
    "name": "Haley",
    "iconSrc": "/icons/portraits/Haley.png",
    "iconAlt": "Haley portrait icon",
    "birthday": [
      {
        "date": "Spring 14",
        "iconSrc": "/icons/36px-Spring.png"
      }
    ],
    "can_be_partner": "yes",

    "gifts": [
      {
        "name": "Coconut",
        "iconSrc": "/icons/gifts/36px-Coconut.png",
        "iconAlt": "Coconut icon"
      },
      {
        "name": "Fruit Salad",
        "iconSrc": "/icons/gifts/36px-Fruit_Salad.png",
        "iconAlt": "Fruit Salad icon"
      },
      {
        "name": "Pink Cake",
        "iconSrc": "/icons/gifts/36px-Pink_Cake.png",
        "iconAlt": "Pink Cake icon"
      },
      {
        "name": "Sunflower",
        "iconSrc": "/icons/gifts/36px-Sunflower.png",
        "iconAlt": "Sunflower icon"
      }
    ],
    "loved_movies": [
      {
        "name": "She doesn't have loved movie",
        "iconSrc": "",
        "iconAlt": ""
      }
    ],
    "disliked_movies": [
      {
        "title": "Journey Of The Prairie King: The Motion Picture",
        "posterIcon": "/icons/movies/36px-'Journey_Of_The_Prairie_King_The_Motion_Picture'.png"
      },
      {
        "title": "Wumbus",
        "posterIcon": "/icons/movies/36px-'Wumbus'.png"
      }
    ],
    "loved_movie_snacks": [
      {
        "name": "Cappuccino Mousse Cake",
        "iconSrc": "/icons/snacks/36px-Cappuccino_Mousse_Cake.png",
        "iconAlt": "Cappuccino Mousse Cake icon"
      },
      {
        "name": "Stardrop Sorbet",
        "iconSrc": "/icons/snacks/36px-Stardrop_Sorbet.png",
        "iconAlt": "Stardrop Sorbet icon"
      }
    ],
    "dislike_movie_snacks": [
      {
        "name": "Black Licorice",
        "iconSrc": "/icons/snacks/36px-Black_Licorice.png",
        "iconAlt": "Black Licorice icon"
      },
      {
        "name": "Fries",
        "iconSrc": "/icons/snacks/36px-Fries.png",
        "iconAlt": "Fries icon"
      },
      {
        "name": "Joja Cola",
        "iconSrc": "/icons/snacks/36px-Joja_Cola.png",
        "iconAlt": "Joja Cola icon"
      },
      {
        "name": "Joja Corn",
        "iconSrc": "/icons/snacks/36px-Joja_Corn.png",
        "iconAlt": "Joja Corn icon"
      },
      {
        "name": "Nachos",
        "iconSrc": "/icons/snacks/36px-Nachos.png",
        "iconAlt": "Nachos icon"
      },

      {
        "name": "Personal Pizza",
        "iconSrc": "/icons/snacks/36px-Personal_Pizza.png",
        "iconAlt": "Personal Pizza icon"
      },

      {
        "name": "Popcorn",
        "iconSrc": "/icons/snacks/36px-Popcorn.png",
        "iconAlt": "Popcorn icon"
      },

      {
        "name": "Salted Peanuts",
        "iconSrc": "/icons/snacks/36px-Salted_Peanuts.png",
        "iconAlt": "Salted Peanuts icon"
      },
      {
        "name": "Truffle Popcorn",
        "iconSrc": "/icons/snacks/36px-Truffle_Popcorn.png",
        "iconAlt": "Truffle Popcorn icon"
      }
    ]
  },
  {
    "name": "Leah",
    "iconSrc": "/icons/portraits/Leah.png",
    "iconAlt": "Leah portrait icon",
    "birthday": [
      {
        "date": "Winter 23",
        "iconSrc": "/icons/36px-Winter.png"
      }
    ],
    "can_be_partner": "yes",
    "gifts": [
      {
        "name": "Goat Cheese",
        "iconSrc": "/icons/gifts/36px-Goat_Cheese.png",
        "iconAlt": "Goat Cheese icon"
      },
      {
        "name": "Poppyseed Muffin",
        "iconSrc": "/icons/gifts/36px-Poppyseed_Muffin.png",
        "iconAlt": "Poppyseed Muffin icon"
      },
      {
        "name": "Salad",
        "iconSrc": "/icons/gifts/36px-Salad.png",
        "iconAlt": "Salad icon"
      },

      {
        "name": "Stir Fry",
        "iconSrc": "/icons/gifts/36px-Stir_Fry.png",
        "iconAlt": "Stir Fry icon"
      },
      {
        "name": "Truffle",
        "iconSrc": "/icons/gifts/36px-Truffle.png",
        "iconAlt": "Truffle icon"
      },
      {
        "name": "Vegetable Medley",
        "iconSrc": "/icons/gifts/36px-Vegetable_Medley.png",
        "iconAlt": "Vegetable Medley icon"
      },
      {
        "name": "Wine",
        "iconSrc": "/icons/gifts/36px-Wine.png",
        "iconAlt": "Wine icon"
      }
    ],
    "loved_movies": [
      {
        "title": "Mysterium",
        "posterIcon": "/icons/movies/36px-'Mysterium'.png"
      }
    ],
    "disliked_movies": [
      {
        "title": "It Howls In The Rain",
        "posterIcon": "/icons/movies/36px-'It_Howls_In_The_Rain'.png'"
      },
      {
        "title": "Journey Of The Prairie King: The Motion Picture",
        "posterIcon": "/icons/movies/36px-'Journey_Of_The_Prairie_King_The_Motion_Picture'.png"
      }
    ],
    "loved_movie_snacks": [
      {
        "name": "Panzanella Salad",
        "iconSrc": "/icons/snacks/36px-Panzanella_Salad.png",
        "iconAlt": "Panzanella Salad icon"
      },
      {
        "name": "Stardrop Sorbet",
        "iconSrc": "/icons/snacks/36px-Stardrop_Sorbet.png",
        "iconAlt": "Stardrop Sorbet icon"
      }
    ],
    "dislike_movie_snacks": [
      {
        "name": "Black Licorice",
        "iconSrc": "/icons/snacks/36px-Black_Licorice.png",
        "iconAlt": "Black Licorice icon"
      },
      {
        "name": "Fries",
        "iconSrc": "/icons/snacks/36px-Fries.png",
        "iconAlt": "Fries icon"
      },
      {
        "name": "Joja Cola",
        "iconSrc": "/icons/snacks/36px-Joja_Cola.png",
        "iconAlt": "Joja Cola icon"
      },
      {
        "name": "Joja Corn",
        "iconSrc": "/icons/snacks/36px-Joja_Corn.png",
        "iconAlt": "Joja Corn icon"
      },
      {
        "name": "Nachos",
        "iconSrc": "/icons/snacks/36px-Nachos.png",
        "iconAlt": "Nachos icon"
      },

      {
        "name": "Personal Pizza",
        "iconSrc": "/icons/snacks/36px-Personal_Pizza.png",
        "iconAlt": "Personal Pizza icon"
      },

      {
        "name": "Popcorn",
        "iconSrc": "/icons/snacks/36px-Popcorn.png",
        "iconAlt": "Popcorn icon"
      },

      {
        "name": "Salted Peanuts",
        "iconSrc": "/icons/snacks/36px-Salted_Peanuts.png",
        "iconAlt": "Salted Peanuts icon"
      }
    ]
  },
  {
    "name": "Maru",
    "iconSrc": "/icons/portraits/Maru.png",
    "iconAlt": "Maru portrait icon",
    "birthday": [
      {
        "date": "Summer 10",
        "iconSrc": "/icons/36px-Summer.png"
      }
    ],
    "can_be_partner": "yes",
    "gifts": [
      {
        "name": "Battery Pack",
        "iconSrc": "/icons/gifts/36px-Battery_Pack.png",
        "iconAlt": "Battery Pack icon"
      },
      {
        "name": "Cauliflower",
        "iconSrc": "/icons/gifts/36px-Cauliflower.png",
        "iconAlt": "Cauliflower icon"
      },
      {
        "name": "Cheese Cauliflower",
        "iconSrc": "/icons/gifts/36px-Cheese_Cauliflower.png",
        "iconAlt": "Cheese Cauliflower icon"
      },

      {
        "name": "Diamond",
        "iconSrc": "/icons/gifts/36px-Diamond.png",
        "iconAlt": "Diamond icon"
      },
      {
        "name": "Gold Bar",
        "iconSrc": "/icons/gifts/36px-Gold_Bar.png",
        "iconAlt": "Gold Bar icon"
      },
      {
        "name": "Iridium Bar",
        "iconSrc": "/icons/gifts/36px-Iridium_Bar.png",
        "iconAlt": "Iridium Bar icon"
      },

      {
        "name": "Miner's Treat",
        "iconSrc": "/icons/gifts/36px-Miner's_Treat.png",
        "iconAlt": "Miner's Treat icon"
      },

      {
        "name": "Pepper Poppers",
        "iconSrc": "/icons/gifts/36px-Pepper_Poppers.png",
        "iconAlt": "Pepper Poppers icon"
      },

      {
        "name": "Radioactive Bar",
        "iconSrc": "/icons/gifts/36px-Radioactive_Bar.png",
        "iconAlt": "Radioactive Bar icon"
      },
      {
        "name": "Rhubarb Pie",
        "iconSrc": "/icons/gifts/36px-Rhubarb_Pie.png",
        "iconAlt": "Rhubarb Pie icon"
      },

      {
        "name": "Strawberry",
        "iconSrc": "/icons/gifts/36px-Strawberry.png",
        "iconAlt": "Strawberry icon"
      }
    ],
    "loved_movies": [
      {
        "title": "Natural Wonders: Exploring Our Vibrant World",
        "posterIcon": "/icons/movies/36px-'Natural_Wonders_Exploring_Our_Vibrant_World'.png"
      },
      {
        "title": "Wumbus",
        "posterIcon": "/icons/movies/36px-'Wumbus'.png"
      }
    ],
    "disliked_movies": [
      {
        "name": "She doesn't have disliked movie",
        "iconSrc": "",
        "iconAlt": ""
      }
    ],

    "loved_movie_snacks": [
      {
        "name": "Star Cookie",
        "iconSrc": "/icons/snacks/36px-Star_Cookie.png",
        "iconAlt": "Star Cookie icon"
      },
      {
        "name": "Stardrop Sorbet",
        "iconSrc": "/icons/snacks/36px-Stardrop_Sorbet.png",
        "iconAlt": "Stardrop Sorbet icon"
      }
    ],
    "dislike_movie_snacks": [
      {
        "name": "Black Licorice",
        "iconSrc": "/icons/snacks/36px-Black_Licorice.png",
        "iconAlt": "Black Licorice icon"
      },
      {
        "name": "Joja Cola",
        "iconSrc": "/icons/snacks/36px-Joja_Cola.png",
        "iconAlt": "Joja Cola icon"
      },

      {
        "name": "JojaCorn",
        "iconSrc": "/icons/snacks/36px-JojaCorn.png",
        "iconAlt": "JojaCorn icon"
      }
    ]
  },
  {
    "name": "Penny",
    "iconSrc": "/icons/portraits/Penny.png",
    "iconAlt": "Penny portrait icon",
    "birthday": [
      {
        "date": "Fall 2",
        "iconSrc": "/icons/36px-Fall.png"
      }
    ],
    "can_be_partner": "yes",
    "gifts": [
      {
        "name": "Diamond",
        "iconSrc": "/icons/gifts/36px-Diamond.png",
        "iconAlt": "Diamond icon"
      },
      {
        "name": "Melon",
        "iconSrc": "/icons/gifts/36px-Melon.png",
        "iconAlt": "Melon icon"
      },
      {
        "name": "Poppyseed Muffin",
        "iconSrc": "/icons/gifts/36px-Poppyseed_Muffin.png",
        "iconAlt": "Poppyseed Muffin icon"
      },

      {
        "name": "Emerald",
        "iconSrc": "/icons/gifts/36px-Emerald.png",
        "iconAlt": "Emerald icon"
      },
      {
        "name": "Red Plate",
        "iconSrc": "/icons/gifts/36px-Red_Plate.png",
        "iconAlt": "Red Plate icon"
      },
      {
        "name": "Roots Platter",
        "iconSrc": "/icons/gifts/36px-Roots_Platter.png",
        "iconAlt": "Roots Platter icon"
      },

      {
        "name": "Sandfish",
        "iconSrc": "/icons/gifts/36px-Sandfish.png",
        "iconAlt": "Sandfish Burger icon"
      },

      {
        "name": "Tom Kha Soup",
        "iconSrc": "/icons/gifts/36px-Tom_Kha_Soup.png",
        "iconAlt": "Tom Kha Soup icon"
      }
    ],
    "loved_movies": [
      {
        "title": "The Brave Little Sapling",
        "posterIcon": "/icons/movies/36px-'The_Brave_Little_Sapling'.png"
      },
      {
        "title": "Any movie if Pam is also present",
        "posterIcon": ""
      }
    ],
    "disliked_movies": [
      {
        "title": "It Howls In The Rain",
        "posterIcon": "/icons/movies/36px-'It_Howls_In_The_Rain'.png"
      },
      {
        "title": "Mysterium",
        "posterIcon": "/icons/movies/36px-'Mysterium'.png"
      }
    ],
    "loved_movie_snacks": [
      {
        "name": "Cotton Candy",
        "iconSrc": "/icons/snacks/36px-Cotton_Candy.png",
        "iconAlt": "Cotton Candy icon"
      },
      {
        "name": "Stardrop Sorbet",
        "iconSrc": "/icons/snacks/36px-Stardrop_Sorbet.png",
        "iconAlt": "Stardrop Sorbet icon"
      }
    ],
    "dislike_movie_snacks": [
      {
        "name": "Black Licorice",
        "iconSrc": "/icons/snacks/36px-Black_Licorice.png",
        "iconAlt": "Black Licorice icon"
      },
      {
        "name": "Joja Cola",
        "iconSrc": "/icons/snacks/36px-Joja_Cola.png",
        "iconAlt": "Joja Cola icon"
      },

      {
        "name": "JojaCorn",
        "iconSrc": "/icons/snacks/36px-JojaCorn.png",
        "iconAlt": "JojaCorn icon"
      },
      {
        "name": "Sour Slimes",
        "iconSrc": "/icons/snacks/36px-Sour_Slimes.png",
        "iconAlt": "Sour Slimes icon"
      }
    ]
  },
  {
    "name": "Caroline",
    "iconSrc": "/icons/portraits/Caroline.png",
    "iconAlt": "Caroline portrait icon",
    "birthday": [
      {
        "date": "Winter 7",
        "iconSrc": "/icons/36px-Winter.png"
      }
    ],
    "can_be_partner": "no",
    "gifts": [
      {
        "name": "Fish Taco",
        "iconSrc": "/icons/gifts/36px-Fish_Taco.png",
        "iconAlt": "Fish Taco icon"
      },
      {
        "name": "Green Tea",
        "iconSrc": "/icons/gifts/36px-Green_Tea.png",
        "iconAlt": "Green Tea icon"
      },
      {
        "name": "Summer Spangle",
        "iconSrc": "/icons/gifts/36px-Summer_Spangle.png",
        "iconAlt": "Summer Spangle icon"
      },

      {
        "name": "Tropical Curry",
        "iconSrc": "/icons/gifts/36px-Tropical_Curry.png",
        "iconAlt": "Tropical Curry icon"
      },

      {
        "name": "Daffodil",
        "iconSrc": "/icons/36px-Daffodil.png",
        "iconAlt": "Daffodil icon"
      }
    ],
    "loved_movies": [
      {
        "title": "Journey Of The Prairie King: The Motion Picture",
        "posterIcon": "/icons/movies/36px-'Journey_Of_The_Prairie_King_The_Motion_Picture'.png"
      },
      {
        "title": "The Brave Little Sapling",
        "posterIcon": "/icons/movies/36px-'The_Brave_Little_Sapling'.png"
      }
    ],
    "disliked_movies": [
      {
        "title": "Wumbus",
        "posterIcon": "/icons/movies/36px-'Wumbus'.png"
      }
    ],
    "loved_movie_snacks": [
      {
        "name": "Jasmine Tea",
        "iconSrc": "/icons/snacks/36px-Jasmine_Tea.png",
        "iconAlt": "Jasmine Tea icon"
      },
      {
        "name": "Stardrop Sorbet",
        "iconSrc": "/icons/snacks/36px-Stardrop_Sorbet.png",
        "iconAlt": "Stardrop Sorbet icon"
      },
      {
        "name": "Truffle Popcorn",
        "iconSrc": "/icons/snacks/36px-Truffle_Popcorn.png",
        "iconAlt": "Truffle Popcorn icon"
      }
    ],
    "dislike_movie_snacks": [
      {
        "name": "Black Licorice",
        "iconSrc": "/icons/snacks/36px-Black_Licorice.png",
        "iconAlt": "Black Licorice icon"
      },
      {
        "name": "Cotton Candy",
        "iconSrc": "/icons/snacks/36px-Cotton_Candy.png",
        "iconAlt": "Cotton Candy icon"
      },
      {
        "name": "Fries",
        "iconSrc": "/icons/snacks/36px-Fries.png",
        "iconAlt": "Fries icon"
      },
      {
        "name": "Joja Cola",
        "iconSrc": "/icons/snacks/36px-Joja_Cola.png",
        "iconAlt": "Joja Cola icon"
      },
      {
        "name": "Joja Corn",
        "iconSrc": "/icons/snacks/36px-Joja_Corn.png",
        "iconAlt": "Joja Corn icon"
      },
      {
        "name": "Nachos",
        "iconSrc": "/icons/snacks/36px-Nachos.png",
        "iconAlt": "Nachos icon"
      },

      {
        "name": "Personal Pizza",
        "iconSrc": "/icons/snacks/36px-Personal_Pizza.png",
        "iconAlt": "Personal Pizza icon"
      },
      {
        "name": "Jawbreaker",
        "iconSrc": "/icons/snacks/36px-Jawbreaker.png",
        "iconAlt": "Jawbreaker icon"
      },
      {
        "name": "Rock Candy",
        "iconSrc": "/icons/snacks/36px-Rock_Candy.png",
        "iconAlt": "Rock Candy icon"
      },
      {
        "name": "Sour Slimes",
        "iconSrc": "/icons/snacks/36px-Sour_Slimes.png",
        "iconAlt": "Sour Slimes icon"
      }
    ]
  },
  {
    "name": "Clint",
    "iconSrc": "/icons/portraits/Clint.png",
    "iconAlt": "Clint portrait icon",
    "birthday": [
      {
        "date": "Winter 26",
        "iconSrc": "/icons/36px-Winter.png"
      }
    ],
    "can_be_partner": "no",
    "gifts": [
      {
        "name": "Amethyst",
        "iconSrc": "/icons/gifts/36px-Amethyst.png",
        "iconAlt": "Amethyst icon"
      },
      {
        "name": "Aquamarine",
        "iconSrc": "/icons/gifts/36px-Aquamarine.png",
        "iconAlt": "Aquamarine icon"
      },
      {
        "name": "Artichoke Dip",
        "iconSrc": "/icons/gifts/36px-Artichoke_Dip.png",
        "iconAlt": "Artichoke Dip icon"
      },

      {
        "name": "Emerald",
        "iconSrc": "/icons/gifts/36px-Emerald.png",
        "iconAlt": "Emerald icon"
      },
      {
        "name": "Fiddlehead Risotto",
        "iconSrc": "/icons/gifts/36px-Fiddlehead_Risotto.png",
        "iconAlt": "Fiddlehead Risotto icon"
      },
      {
        "name": "Jade",
        "iconSrc": "/icons/gifts/36px-Jade.png",
        "iconAlt": "Jade icon"
      },
      {
        "name": "Gold Bar",
        "iconSrc": "/icons/gifts/36px-Gold_Bar.png",
        "iconAlt": "Gold Bar icon"
      },
      {
        "name": "Iridium Bar",
        "iconSrc": "/icons/gifts/36px-Iridium_Bar.png",
        "iconAlt": "Iridium Bar icon"
      },
      {
        "name": "Topaz",
        "iconSrc": "/icons/gifts/36px-Topaz.png",
        "iconAlt": "Topaz icon"
      },
      {
        "name": "Ruby",
        "iconSrc": "/icons/gifts/36px-Ruby.png",
        "iconAlt": "Ruby icon"
      },
      {
        "name": "Omni Geode",
        "iconSrc": "/icons/gifts/36px-Omni_Geode.png",
        "iconAlt": "Omni Geode icon"
      }
    ],
    "loved_movies": [
      {
        "name": "He doesn't have loved movie",
        "iconSrc": "",
        "iconAlt": ""
      }
    ],
    "disliked_movies": [
      {
        "title": "The Zuzu City Express",
        "posterIcon": "/icons/movies/36px-'The_Zuzu_City_Express'.png"
      }
    ],

    "loved_movie_snacks": [
      {
        "name": "Fries",
        "iconSrc": "/icons/snacks/36px-Fries.png",
        "iconAlt": "Fries icon"
      },
      {
        "name": "Stardrop Sorbet",
        "iconSrc": "/icons/snacks/36px-Stardrop_Sorbet.png",
        "iconAlt": "Stardrop Sorbet icon"
      }
    ],
    "dislike_movie_snacks": [
      {
        "name": "Apple Slices",
        "iconSrc": "/icons/snacks/36px-Apple_Slices.png",
        "iconAlt": "Apple Slices icon"
      },
      {
        "name": "Black Licorice",
        "iconSrc": "/icons/snacks/36px-Black_Licorice.png",
        "iconAlt": "Black Licorice icon"
      },
      {
        "name": "Hummus Snack Pack",
        "iconSrc": "/icons/snacks/36px-Hummus_Snack_Pack.png",
        "iconAlt": "Hummus Snack Pack icon"
      },
      {
        "name": "Jasmine Tea",
        "iconSrc": "/icons/snacks/36px-Jasmine_Tea.png",
        "iconAlt": "Jasmine Tea icon"
      },
      {
        "name": "Joja Cola",
        "iconSrc": "/icons/snacks/36px-Joja_Cola.png",
        "iconAlt": "Joja Cola icon"
      },
      {
        "name": "Joja Corn",
        "iconSrc": "/icons/snacks/36px-Joja_Corn.png",
        "iconAlt": "Joja Corn icon"
      },
      {
        "name": "Kale_Smoothie",
        "iconSrc": "/icons/snacks/36px-Kale_Smoothie.png",
        "iconAlt": "Kale Smoothie icon"
      },
      {
        "name": "Panzanella Salad",
        "iconSrc": "/icons/snacks/36px-Panzanella_Salad.png",
        "iconAlt": "Panzanella Salad icon"
      }
    ]
  },
  {
    "name": "Demetrius",
    "iconSrc": "/icons/portraits/Demetrius.png",
    "iconAlt": "Demetrius portrait icon",
    "birthday": [
      {
        "date": "Summer 19",
        "iconSrc": "/icons/36px-Summer.png"
      }
    ],
    "can_be_partner": "no",
    "gifts": [
      {
        "name": "Bean Hotpot",
        "iconSrc": "/icons/gifts/36px-Bean_Hotpot.png",
        "iconAlt": "Bean Hotpot icon"
      },
      {
        "name": "Ice Cream",
        "iconSrc": "/icons/gifts/36px-Ice_Cream.png",
        "iconAlt": "Ice Cream icon"
      },
      {
        "name": "Rice Pudding",
        "iconSrc": "/icons/gifts/36px-Rice_Pudding.png",
        "iconAlt": "Rice Pudding icon"
      },

      {
        "name": "Strawberry",
        "iconSrc": "/icons/gifts/36px-Strawberry.png",
        "iconAlt": "Strawberry icon"
      }
    ],
    "loved_movies": [
      {
        "title": "Natural Wonders: Exploring Our Vibrant World",
        "posterIcon": "/icons/movies/36px-'Natural_Wonders_Exploring_Our_Vibrant_World'.png"
      },
      {
        "title": "Wumbus",
        "posterIcon": "/icons/movies/36px-'Wumbus'.png"
      }
    ],
    "disliked_movies": [
      {
        "title": "The Miracle At Coldstar Ranch",
        "posterIcon": "/icons/movies/36px-'The_Miracle_At_Coldstar_Ranch'.png"
      },
      {
        "title": "The Zuzu City Express",
        "posterIcon": "/icons/movies/36px-'The_Zuzu_City_Express'.png"
      }
    ],
    "loved_movie_snacks": [
      {
        "name": "Popcorn",
        "iconSrc": "/icons/snacks/36px-Popcorn.png",
        "iconAlt": "Popcorn icon"
      },
      {
        "name": "Stardrop Sorbet",
        "iconSrc": "/icons/snacks/36px-Stardrop_Sorbet.png",
        "iconAlt": "Stardrop Sorbet icon"
      }
    ],
    "dislike_movie_snacks": [
      {
        "name": "Black Licorice",
        "iconSrc": "/icons/snacks/36px-Black_Licorice.png",
        "iconAlt": "Black Licorice icon"
      },
      {
        "name": "Hummus Snack Pack",
        "iconSrc": "/icons/snacks/36px-Hummus_Snack_Pack.png",
        "iconAlt": "Hummus Snack Pack icon"
      },
      {
        "name": "Jasmine Tea",
        "iconSrc": "/icons/snacks/36px-Jasmine_Tea.png",
        "iconAlt": "Jasmine Tea icon"
      },
      {
        "name": "Joja Cola",
        "iconSrc": "/icons/snacks/36px-Joja_Cola.png",
        "iconAlt": "Joja Cola icon"
      },
      {
        "name": "Joja Corn",
        "iconSrc": "/icons/snacks/36px-Joja_Corn.png",
        "iconAlt": "Joja Corn icon"
      },
      {
        "name": "Kale_Smoothie",
        "iconSrc": "/icons/snacks/36px-Kale_Smoothie.png",
        "iconAlt": "Kale Smoothie icon"
      },
      {
        "name": "Panzanella Salad",
        "iconSrc": "/icons/snacks/36px-Panzanella_Salad.png",
        "iconAlt": "Panzanella Salad icon"
      }
    ]
  },
  {
    "name": "Dwarf",
    "iconSrc": "/icons/portraits/Dwarf.png",
    "iconAlt": "Dwarf portrait icon",
    "birthday": [
      {
        "date": "Summer 22",
        "iconSrc": "/icons/36px-Summer.png"
      }
    ],
    "can_be_partner": "no",
    "gifts": [
      {
        "name": "Amethyst",
        "iconSrc": "/icons/gifts/36px-Amethyst.png",
        "iconAlt": "Amethyst icon"
      },
      {
        "name": "Aquamarine",
        "iconSrc": "/icons/gifts/36px-Aquamarine.png",
        "iconAlt": "Aquamarine icon"
      },
      {
        "name": "Lemon Stone",
        "iconSrc": "/icons/gifts/36px-Lemon_Stone.png",
        "iconAlt": "Lemon Stone icon"
      },

      {
        "name": "Emerald",
        "iconSrc": "/icons/gifts/36px-Emerald.png",
        "iconAlt": "Emerald icon"
      },
      {
        "name": "Jade",
        "iconSrc": "/icons/gifts/36px-Jade.png",
        "iconAlt": "Jade icon"
      },
      {
        "name": "Topaz",
        "iconSrc": "/icons/gifts/36px-Topaz.png",
        "iconAlt": "Topaz icon"
      },
      {
        "name": "Ruby",
        "iconSrc": "/icons/gifts/36px-Ruby.png",
        "iconAlt": "Ruby icon"
      },
      {
        "name": "Omni Geode",
        "iconSrc": "/icons/gifts/36px-Omni_Geode.png",
        "iconAlt": "Omni Geode icon"
      }
    ],
    "loved_movies": [
      {
        "title": "It Howls In The Rain",
        "posterIcon": "/icons/movies/36px-'It_Howls_In_The_Rain'.png"
      },
      {
        "title": "Mysterium",
        "posterIcon": "/icons/movies/36px-'Mysterium'.png"
      },
      {
        "title": "Journey Of The Prairie King: The Motion Picture",
        "posterIcon": "/icons/movies/36px-'Journey_Of_The_Prairie_King_The_Motion_Picture'.png"
      },
      {
        "title": "The Brave Little Sapling",
        "posterIcon": "/icons/movies/36px-'The_Brave_Little_Sapling'.png"
      },
      {
        "title": "Natural Wonders: Exploring Our Vibrant World",
        "posterIcon": "/icons/movies/36px-'Natural_Wonders_Exploring_Our_Vibrant_World'.png"
      },
      {
        "title": "Wumbus",
        "posterIcon": "/icons/movies/36px-'Wumbus'.png"
      },
      {
        "title": "The Miracle At Coldstar Ranch",
        "posterIcon": "/icons/movies/36px-'The_Miracle_At_Coldstar_Ranch'.png"
      },
      {
        "title": "The Zuzu City Express",
        "posterIcon": "/icons/movies/36px-'The_Zuzu_City_Express'.png"
      }
    ],
    "disliked_movies": [
      {
        "name": "He doesn't have disliked movie",
        "iconSrc": "",
        "iconAlt": ""
      }
    ],
    "loved_movie_snacks": [
      {
        "name": "Rock Candy",
        "iconSrc": "/icons/snacks/36px-Rock_Candy.png",
        "iconAlt": "Rock Candy icon"
      },
      {
        "name": "Stardrop Sorbet",
        "iconSrc": "/icons/snacks/36px-Stardrop_Sorbet.png",
        "iconAlt": "Stardrop Sorbet icon"
      }
    ],
    "dislike_movie_snacks": [
      {
        "name": "Everything else",
        "iconSrc": "",
        "iconAlt": ""
      }
    ]
  },
  {
    "name": "Evelyn",
    "iconSrc": "/icons/portraits/Evelyn.png",
    "iconAlt": "Evelyn portrait icon",
    "birthday": [
      {
        "date": "Winter 20",
        "iconSrc": "/icons/36px-Winter.png"
      }
    ],
    "can_be_partner": "no",
    "gifts": [
      {
        "name": "Beet",
        "iconSrc": "/icons/gifts/36px-Beet.png",
        "iconAlt": "Beet icon"
      },
      {
        "name": "Chocolate Cake",
        "iconSrc": "/icons/gifts/36px-Chocolate_Cake.png",
        "iconAlt": "Chocolate Cake icon"
      },
      {
        "name": "Diamond",
        "iconSrc": "/icons/gifts/36px-Diamond.png",
        "iconAlt": "Diamond icon"
      },

      {
        "name": "Fairy Rose",
        "iconSrc": "/icons/gifts/36px-Fairy_Rose.png",
        "iconAlt": "Fairy Rose icon"
      },

      {
        "name": "Stuffing",
        "iconSrc": "/icons/gifts/36px-Stuffing.png",
        "iconAlt": "Stuffing icon"
      },

      {
        "name": "Tulip",
        "iconSrc": "/icons/gifts/36px-Tulip.png",
        "iconAlt": "Tulip icon"
      }
    ],
    "loved_movies": [
      {
        "title": "The Miracle At Coldstar Ranch",
        "posterIcon": "/icons/movies/36px-'The_Miracle_At_Coldstar_Ranch'.png"
      },
      {
        "title": "The Zuzu City Express",
        "posterIcon": "/icons/movies/36px-'The_Zuzu_City_Express'.png"
      }
    ],
    "disliked_movies": [
      {
        "title": "It Howls In The Rain",
        "posterIcon": "/icons/movies/36px-'It_Howls_In_The_Rain'.png"
      },
      {
        "title": "Mysterium",
        "posterIcon": "/icons/movies/36px-'Mysterium'.png"
      }
    ],
    "loved_movie_snacks": [
      {
        "name": "Cappuccino Mousse Cake",
        "iconSrc": "/icons/snacks/36px-Cappuccino_Mousse_Cake.png",
        "iconAlt": "Cappuccino Mousse Cake icon"
      },
      {
        "name": "Star Cookie",
        "iconSrc": "/icons/snacks/36px-Star_Cookie.png",
        "iconAlt": "Star Cookie icon"
      },
      {
        "name": "Stardrop Sorbet",
        "iconSrc": "/icons/snacks/36px-Stardrop_Sorbet.png",
        "iconAlt": "Stardrop Sorbet icon"
      }
    ],
    "dislike_movie_snacks": [
      {
        "name": "Black Licorice",
        "iconSrc": "/icons/snacks/36px-Black_Licorice.png",
        "iconAlt": "Black Licorice icon"
      },
      {
        "name": "Fries",
        "iconSrc": "/icons/snacks/36px-Fries.png",
        "iconAlt": "Fries icon"
      },
      {
        "name": "Jasmine Tea",
        "iconSrc": "/icons/snacks/36px-Jasmine_Tea.png",
        "iconAlt": "Jasmine Tea icon"
      },
      {
        "name": "Joja Cola",
        "iconSrc": "/icons/snacks/36px-Joja_Cola.png",
        "iconAlt": "Joja Cola icon"
      },
      {
        "name": "Joja Corn",
        "iconSrc": "/icons/snacks/36px-Joja_Corn.png",
        "iconAlt": "Joja Corn icon"
      },
      {
        "name": "Nachos",
        "iconSrc": "/icons/snacks/36px-Nachos.png",
        "iconAlt": "Nachos icon"
      },

      {
        "name": "Personal Pizza",
        "iconSrc": "/icons/snacks/36px-Personal_Pizza.png",
        "iconAlt": "Personal Pizza icon"
      },

      {
        "name": "Popcorn",
        "iconSrc": "/icons/snacks/36px-Popcorn.png",
        "iconAlt": "Popcorn icon"
      },

      {
        "name": "Salted Peanuts",
        "iconSrc": "/icons/snacks/36px-Salted_Peanuts.png",
        "iconAlt": "Salted Peanuts icon"
      },
      {
        "name": "Truffle Popcorn",
        "iconSrc": "/icons/snacks/36px-Truffle_Popcorn.png",
        "iconAlt": "Truffle Popcorn icon"
      }
    ]
  },
  {
    "name": "George",
    "iconSrc": "/icons/portraits/George.png",
    "iconAlt": "George portrait icon",
    "birthday": [
      {
        "date": "Fall 24",
        "iconSrc": "/icons/36px-Fall.png"
      }
    ],
    "can_be_partner": "no",
    "gifts": [
      {
        "name": "Fried Mushroom",
        "iconSrc": "/icons/gifts/36px-Fried_Mushroom.png",
        "iconAlt": "Fried Mushroom icon"
      },
      {
        "name": "Leek",
        "iconSrc": "/icons/gifts/36px-Leek.png",
        "iconAlt": "Leek icon"
      }
    ],
    "loved_movies": [
      {
        "title": "The Zuzu City Express",
        "posterIcon": "/icons/movies/36px-'The_Zuzu_City_Express'.png"
      }
    ],
    "disliked_movies": [
      {
        "title": "It Howls In The Rain",
        "posterIcon": "/icons/movies/36px-'It_Howls_In_The_Rain'.png'"
      },
      {
        "title": "Journey Of The Prairie King: The Motion Picture",
        "posterIcon": "/icons/movies/36px-'Journey_Of_The_Prairie_King_The_Motion_Picture'.png"
      },
      {
        "title": "Mysterium",
        "posterIcon": "/icons/movies/36px-'Mysterium'.png"
      }
    ],
    "loved_movie_snacks": [
      {
        "name": "Black Licorice",
        "iconSrc": "/icons/snacks/36px-Black_Licorice.png",
        "iconAlt": "Black Licorice icon"
      },
      {
        "name": "Stardrop Sorbet",
        "iconSrc": "/icons/snacks/36px-Stardrop_Sorbet.png",
        "iconAlt": "Stardrop Sorbet icon"
      }
    ],
    "dislike_movie_snacks": [
      {
        "name": "Everything else",
        "iconSrc": "",
        "iconAlt": ""
      }
    ]
  },
  {
    "name": "Gus",
    "iconSrc": "/icons/portraits/Gus.png",
    "iconAlt": "Gus portrait icon",
    "birthday": [
      {
        "date": "Summer 8",
        "iconSrc": "/icons/36px-Summer.png"
      }
    ],
    "can_be_partner": "no",
    "gifts": [
      {
        "name": "Fish Taco",
        "iconSrc": "/icons/gifts/36px-Fish_Taco.png",
        "iconAlt": "Fish Taco icon"
      },
      {
        "name": "Diamond",
        "iconSrc": "/icons/gifts/36px-Diamond.png",
        "iconAlt": "Diamond icon"
      },
      {
        "name": "Orange",
        "iconSrc": "/icons/gifts/36px-Orange.png",
        "iconAlt": "Orange icon"
      },

      {
        "name": "Tropical Curry",
        "iconSrc": "/icons/gifts/36px-Tropical_Curry.png",
        "iconAlt": "Tropical Curry icon"
      },

      {
        "name": "Escargot",
        "iconSrc": "/icons/gifts/36px-Escargot.png",
        "iconAlt": "Escargot icon"
      }
    ],
    "loved_movies": [
      {
        "title": "Wumbus",
        "posterIcon": "/icons/movies/36px-'Wumbus'.png"
      },
      {
        "title": "The Miracle At Coldstar Ranch",
        "posterIcon": "/icons/movies/36px-'The_Miracle_At_Coldstar_Ranch'.png"
      }
    ],
    "disliked_movies": [
      {
        "title": "Mysterium",
        "posterIcon": "/icons/movies/36px-'Mysterium'.png"
      }
    ],
    "loved_movie_snacks": [
      {
        "name": "Cappuccino Mousse Cake",
        "iconSrc": "/icons/snacks/36px-Cappuccino_Mousse_Cake.png",
        "iconAlt": "Cappuccino Mousse Cake icon"
      },
      {
        "name": "Stardrop Sorbet",
        "iconSrc": "/icons/snacks/36px-Stardrop_Sorbet.png",
        "iconAlt": "Stardrop Sorbet icon"
      },
      {
        "name": "Truffle Popcorn",
        "iconSrc": "/icons/snacks/36px-Truffle_Popcorn.png",
        "iconAlt": "Truffle Popcorn icon"
      },
      {
        "name": "Panzanella Salad",
        "iconSrc": "/icons/snacks/36px-Panzanella_Salad.png",
        "iconAlt": "Panzanella Salad icon"
      }
    ],
    "dislike_movie_snacks": [
      {
        "name": "Everything else",
        "iconSrc": "",
        "iconAlt": ""
      }
    ]
  },
  {
    "name": "Jas",
    "iconSrc": "/icons/portraits/Jas.png",
    "iconAlt": "Jas portrait icon",
    "birthday": [
      {
        "date": "Summer 4",
        "iconSrc": "/icons/36px-Summer.png"
      }
    ],
    "can_be_partner": "no",
    "gifts": [
      {
        "name": "Fairy Rose",
        "iconSrc": "/icons/gifts/36px-Fairy_Rose.png",
        "iconAlt": "Fairy Rose icon"
      },
      {
        "name": "Pink Cake",
        "iconSrc": "/icons/gifts/36px-Pink_Cake.png",
        "iconAlt": "Pink Cake icon"
      },
      {
        "name": "Plum Pudding",
        "iconSrc": "/icons/gifts/36px-Plum_Pudding.png",
        "iconAlt": "Plum Pudding icon"
      }
    ],
    "loved_movies": [
      {
        "title": "Journey Of The Prairie King: The Motion Picture",
        "posterIcon": "/icons/movies/36px-'Journey_Of_The_Prairie_King_The_Motion_Picture'.png"
      },
      {
        "title": "The Brave Little Sapling",
        "posterIcon": "/icons/movies/36px-'The_Brave_Little_Sapling'.png"
      },
      {
        "title": "Natural Wonders: Exploring Our Vibrant World",
        "posterIcon": "/icons/movies/36px-'Natural_Wonders_Exploring_Our_Vibrant_World'.png"
      },
      {
        "title": "Wumbus",
        "posterIcon": "/icons/movies/36px-'Wumbus'.png"
      }
    ],
    "disliked_movies": [
      {
        "title": "It Howls In The Rain",
        "posterIcon": "/icons/movies/36px-'It_Howls_In_The_Rain'.png"
      },
      {
        "title": "Mysterium",
        "posterIcon": "/icons/movies/36px-'Mysterium'.png"
      }
    ],

    "loved_movie_snacks": [
      {
        "name": "Sour Slimes",
        "iconSrc": "/icons/snacks/36px-Sour_Slimes.png",
        "iconAlt": "Sour Slimes icon"
      },
      {
        "name": "Stardrop Sorbet",
        "iconSrc": "/icons/snacks/36px-Stardrop_Sorbet.png",
        "iconAlt": "Stardrop Sorbet icon"
      }
    ],

    "dislike_movie_snacks": [
      {
        "name": "Everything else",
        "iconSrc": "",
        "iconAlt": ""
      }
    ]
  },
  {
    "name": "Jodi",
    "iconSrc": "/icons/portraits/Jodi.png",
    "iconAlt": "Jodi portrait icon",
    "birthday": [
      {
        "date": "Fall 11",
        "iconSrc": "/icons/36px-Fall.png"
      }
    ],
    "can_be_partner": "no",
    "gifts": [
      {
        "name": "Chocolate Cake",
        "iconSrc": "/icons/gifts/36px-Chocolate_Cake.png",
        "iconAlt": "Chocolate Cake icon"
      },
      {
        "name": "Crispy Bass",
        "iconSrc": "/icons/gifts/36px-Crispy_Bass.png",
        "iconAlt": "Crispy Bass icon"
      },
      {
        "name": "Diamond",
        "iconSrc": "/icons/gifts/36px-Diamond.png",
        "iconAlt": "Diamond icon"
      },

      {
        "name": "Eggplant Parmesan",
        "iconSrc": "/icons/gifts/36px-Eggplant_Parmesan.png",
        "iconAlt": "Eggplant Parmesan icon"
      },
      {
        "name": "Fried Eel",
        "iconSrc": "/icons/gifts/36px-Fried_Eel.png",
        "iconAlt": "Fried Eel icon"
      },
      {
        "name": "Pancakes",
        "iconSrc": "/icons/gifts/36px-Pancakes.png",
        "iconAlt": "Pancakes icon"
      },
      {
        "name": "Rhubarb Pie",
        "iconSrc": "/icons/gifts/36px-Rhubarb_Pie.png",
        "iconAlt": "Rhubarb Pie icon"
      },
      {
        "name": "Vegetable Medley",
        "iconSrc": "/icons/gifts/36px-Vegetable_Medley.png",
        "iconAlt": "Vegetable Medley icon"
      }
    ],
    "loved_movies": [
      {
        "title": "The Zuzu City Express",
        "posterIcon": "/icons/movies/36px-'The_Zuzu_City_Express'.png"
      }
    ],
    "disliked_movies": [
      {
        "name": "She doesn't have disliked movie",
        "iconSrc": "",
        "iconAlt": ""
      }
    ],
    "loved_movie_snacks": [
      {
        "name": "Chocolate Popcorn",
        "iconSrc": "/icons/snacks/36px-Chocolate_Popcorn.png",
        "iconAlt": "Chocolate Popcorn icon"
      },
      {
        "name": "Stardrop Sorbet",
        "iconSrc": "/icons/snacks/36px-Stardrop_Sorbet.png",
        "iconAlt": "Stardrop Sorbet icon"
      }
    ],
    "dislike_movie_snacks": [
      {
        "name": "Everything else",
        "iconSrc": "",
        "iconAlt": ""
      }
    ]
  },
  {
    "name": "Kent",
    "iconSrc": "/icons/portraits/Kent.png",
    "iconAlt": "Kent portrait icon",
    "birthday": [
      {
        "date": "Spring 4",
        "iconSrc": "/icons/36px-Spring.png"
      }
    ],

    "can_be_partner": "no",
    "gifts": [
      {
        "name": "Fiddlehead Risotto",
        "iconSrc": "/icons/gifts/36px-Fiddlehead_Risotto.png",
        "iconAlt": "Fiddlehead Risotto icon"
      },
      {
        "name": "Roasted Hazelnuts",
        "iconSrc": "/icons/gifts/36px-Roasted_Hazelnuts.png",
        "iconAlt": "Roasted Hazelnuts icon"
      },
      {
        "name": "Daffodil",
        "iconSrc": "/icons/36px-Daffodil.png",
        "iconAlt": "Daffodil icon"
      }
    ],
    "loved_movies": [
      {
        "name": "He doesn't have loved movie",
        "iconSrc": "",
        "iconAlt": ""
      }
    ],
    "disliked_movies": [
      {
        "title": "It Howls In The Rain",
        "posterIcon": "/icons/movies/36px-'It_Howls_In_The_Rain'.png"
      },
      {
        "title": "Mysterium",
        "posterIcon": "/icons/movies/36px-'Mysterium'.png"
      }
    ],
    "loved_movie_snacks": [
      {
        "name": "Popcorn",
        "iconSrc": "/icons/snacks/36px-Popcorn.png",
        "iconAlt": "Popcorn icon"
      },
      {
        "name": "Stardrop Sorbet",
        "iconSrc": "/icons/snacks/36px-Stardrop_Sorbet.png",
        "iconAlt": "Stardrop Sorbet icon"
      }
    ],
    "dislike_movie_snacks": [
      {
        "name": "Black Licorice",
        "iconSrc": "/icons/snacks/36px-Black_Licorice.png",
        "iconAlt": "Black Licorice icon"
      },
      {
        "name": "Cotton Candy",
        "iconSrc": "/icons/snacks/36px-Cotton_Candy.png",
        "iconAlt": "Cotton Candy icon"
      },
      {
        "name": "Jawbreaker",
        "iconSrc": "/icons/snacks/36px-Jawbreaker.png",
        "iconAlt": "Jawbreaker icon"
      },
      {
        "name": "Joja Cola",
        "iconSrc": "/icons/snacks/36px-Joja_Cola.png",
        "iconAlt": "Joja Cola icon"
      },
      {
        "name": "Joja Corn",
        "iconSrc": "/icons/snacks/36px-Joja_Corn.png",
        "iconAlt": "Joja Corn icon"
      },
      {
        "name": "Rock Candy",
        "iconSrc": "/icons/snacks/36px-Rock_Candy.png",
        "iconAlt": "Rock Candy icon"
      },
      {
        "name": "Sour Slimes",
        "iconSrc": "/icons/snacks/36px-Sour_Slimes.png",
        "iconAlt": "Sour Slimes icon"
      }
    ]
  },
  {
    "name": "Krobus",
    "iconSrc": "/icons/portraits/Krobus.png",
    "iconAlt": "Krobus portrait icon",
    "birthday": [
      {
        "date": "Winter 1",
        "iconSrc": "/icons/36px-Winter.png"
      }
    ],
    "can_be_partner": "No, but can become a roommate",
    "gifts": [
      {
        "name": "Diamond",
        "iconSrc": "/icons/gifts/36px-Diamond.png",
        "iconAlt": "Diamond icon"
      },
      {
        "name": "Iridium Bar",
        "iconSrc": "/icons/gifts/36px-Iridium_Bar.png",
        "iconAlt": "Iridium Bar icon"
      },
      {
        "name": "Pumpkin",
        "iconSrc": "/icons/gifts/36px-Pumpkin.png",
        "iconAlt": "Pumpkin icon"
      },
      {
        "name": "Void Egg",
        "iconSrc": "/icons/gifts/36px-Void_Egg.png",
        "iconAlt": "Void Egg icon"
      },
      {
        "name": "Void Mayonnaise",
        "iconSrc": "/icons/gifts/36px-Void_Mayonnaise.png",
        "iconAlt": "Void Mayonnaise icon"
      },
      {
        "name": "Wild Horseradish",
        "iconSrc": "/icons/gifts/36px-Wild_Horseradish.png",
        "iconAlt": "Wild Horseradish icon"
      }
    ],
    "loved_movies": [
      {
        "name": "He doesn't have loved movie",
        "iconSrc": "",
        "iconAlt": ""
      }
    ],
    "disliked_movies": [
      {
        "title": "It Howls In The Rain",
        "posterIcon": "/icons/movies/36px-'It_Howls_In_The_Rain'.png"
      },
      {
        "title": "Journey Of The Prairie King: The Motion Picture",
        "posterIcon": "/icons/movies/36px-'Journey_Of_The_Prairie_King_The_Motion_Picture'.png"
      },
      {
        "title": "The Brave Little Sapling",
        "posterIcon": "/icons/movies/36px-'The_Brave_Little_Sapling'.png"
      },
      {
        "title": "Natural Wonders: Exploring Our Vibrant World",
        "posterIcon": "/icons/movies/36px-'Natural_Wonders_Exploring_Our_Vibrant_World'.png"
      },
      {
        "title": "Wumbus",
        "posterIcon": "/icons/movies/36px-'Wumbus'.png"
      },
      {
        "title": "The Miracle At Coldstar Ranch",
        "posterIcon": "/icons/movies/36px-'The_Miracle_At_Coldstar_Ranch'.png"
      },
      {
        "title": "The Zuzu City Express",
        "posterIcon": "/icons/movies/36px-'The_Zuzu_City_Express'.png"
      }
    ],
    "loved_movie_snacks": [
      {
        "name": "Black Licorice",
        "iconSrc": "/icons/snacks/36px-Black_Licorice.png",
        "iconAlt": "Black Licorice icon"
      }
    ],
    "dislike_movie_snacks": [
      {
        "name": "Apple Slices",
        "iconSrc": "/icons/snacks/36px-Apple_Slices.png",
        "iconAlt": "Apple Slices icon"
      },
      {
        "name": "Cappuccino Mousse Cake",
        "iconSrc": "/icons/snacks/36px-Cappuccino_Mousse_Cake.png",
        "iconAlt": "Cappuccino Mousse Cake icon"
      },
      {
        "name": "Joja Cola",
        "iconSrc": "/icons/snacks/36px-Joja_Cola.png",
        "iconAlt": "Joja Cola icon"
      },
      {
        "name": "Ice Cream Sandwich",
        "iconSrc": "/icons/snacks/36px-Ice_Cream_Sandwich.png",
        "iconAlt": "Ice Cream Sandwich icon"
      },
      {
        "name": "Chocolate Popcorn",
        "iconSrc": "/icons/snacks/36px-Chocolate_Popcorn.png",
        "iconAlt": "Chocolate Popcorn icon"
      },
      {
        "name": "JojaCorn",
        "iconSrc": "/icons/snacks/36px-JojaCorn.png",
        "iconAlt": "JojaCorn icon"
      },
      {
        "name": "Star Cookie",
        "iconSrc": "/icons/snacks/36px-Star_Cookie.png",
        "iconAlt": "Star Cookie icon"
      },
      {
        "name": "Stardrop Sorbet",
        "iconSrc": "/icons/snacks/36px-Stardrop_Sorbet.png",
        "iconAlt": "Stardrop Sorbet icon"
      },
      {
        "name": "Cotton Candy",
        "iconSrc": "/icons/snacks/36px-Cotton_Candy.png",
        "iconAlt": "Cotton Candy icon"
      },
      {
        "name": "Jawbreaker",
        "iconSrc": "/icons/snacks/36px-Jawbreaker.png",
        "iconAlt": "Jawbreaker icon"
      },
      {
        "name": "Rock Candy",
        "iconSrc": "/icons/snacks/36px-Rock_Candy.png",
        "iconAlt": "Rock Candy icon"
      }
    ]
  },

  {
    "name": "Leo",
    "iconSrc": "/icons/portraits/Leo.png",
    "iconAlt": "Leo portrait icon",
    "birthday": [
      {
        "date": "Summer 26",
        "iconSrc": "/icons/36px-Summer.png"
      }
    ],
    "can_be_partner": "No",
    "gifts": [
      {
        "name": "Duck Feather",
        "iconSrc": "/icons/gifts/36px-Duck_Feather.png",
        "iconAlt": "Duck Feather icon"
      },
      {
        "name": "Mango",
        "iconSrc": "/icons/gifts/36px-Salmon_Dinner.png",
        "iconAlt": "Mango icon"
      },
      {
        "name": "Ostrich Egg",
        "iconSrc": "/icons/gifts/36px-Ostrich_Egg.png",
        "iconAlt": "Ostrich Egg icon"
      },
      {
        "name": "Poi",
        "iconSrc": "/icons/gifts/36px-Poi.png",
        "iconAlt": "Poi icon"
      }
    ],
    "loved_movies": [
      {
        "title": "Natural Wonders: Exploring Our Vibrant World",
        "posterIcon": "/icons/movies/36px-'Natural_Wonders_Exploring_Our_Vibrant_World'.png"
      }
    ],
    "disliked_movies": [
      {
        "name": "He doesn't have disliked movie",
        "iconSrc": "",
        "iconAlt": ""
      }
    ],
    "loved_movie_snacks": [
      {
        "name": "He doesn't have loved snack",
        "iconSrc": "",
        "iconAlt": ""
      }
    ],
    "dislike_movie_snacks": [
      {
        "name": "Black Licorice",
        "iconSrc": "/icons/snacks/36px-Black_Licorice.png",
        "iconAlt": "Black Licorice icon"
      },
      {
        "name": "Joja Cola",
        "iconSrc": "/icons/snacks/36px-Joja_Cola.png",
        "iconAlt": "Joja Cola icon"
      },
      {
        "name": "Joja Corn",
        "iconSrc": "/icons/snacks/36px-Joja_Corn.png",
        "iconAlt": "Joja Corn icon"
      }
    ]
  },
  {
    "name": "Lewis",
    "iconSrc": "/icons/portraits/Lewis.png",
    "iconAlt": "Lewis portrait icon",
    "birthday": [
      {
        "date": "Spring 7",
        "iconSrc": "/icons/36px-Spring.png"
      }
    ],
    "can_be_partner": "No",
    "gifts": [
      {
        "name": "Autumn's Bounty",
        "iconSrc": "/icons/gifts/36px-Autumn's_Bounty.png",
        "iconAlt": "Autumn's Bounty icon"
      },
      {
        "name": "Glazed Yams",
        "iconSrc": "/icons/gifts/36px-Glazed_Yams.png",
        "iconAlt": "Glazed Yams icon"
      },
      {
        "name": "Green Tea",
        "iconSrc": "/icons/gifts/36px-Green_Tea.png",
        "iconAlt": "Green Tea icon"
      },
      {
        "name": "Hot Pepper",
        "iconSrc": "/icons/gifts/36px-Hot_Pepper.png",
        "iconAlt": "Hot Pepper icon"
      },
      {
        "name": "Vegetable Medley",
        "iconSrc": "/icons/gifts/36px-Vegetable_Medley.png",
        "iconAlt": "Vegetable Medley icon"
      }
    ],
    "loved_movies": [
      {
        "title": "Natural Wonders: Exploring Our Vibrant World",
        "posterIcon": "/icons/movies/36px-'Natural_Wonders_Exploring_Our_Vibrant_World'.png"
      }
    ],
    "disliked_movies": [
      {
        "title": "It Howls In The Rain",
        "posterIcon": "/icons/movies/36px-'It_Howls_In_The_Rain'.png"
      },
      {
        "title": "Mysterium",
        "posterIcon": "/icons/movies/36px-'Mysterium'.png"
      }
    ],
    "loved_movie_snacks": [
      {
        "name": "Jasmine Tea",
        "iconSrc": "/icons/snacks/36px-Jasmine_Tea.png",
        "iconAlt": "Jasmine Tea icon"
      },
      {
        "name": "Stardrop Sorbet",
        "iconSrc": "/icons/snacks/36px-Stardrop_Sorbet.png",
        "iconAlt": "Stardrop Sorbet icon"
      }
    ],
    "dislike_movie_snacks": [
      {
        "name": "Black Licorice",
        "iconSrc": "/icons/snacks/36px-Black_Licorice.png",
        "iconAlt": "Black Licorice icon"
      },
      {
        "name": "Joja Cola",
        "iconSrc": "/icons/snacks/36px-Joja_Cola.png",
        "iconAlt": "Joja Cola icon"
      },
      {
        "name": "Joja Corn",
        "iconSrc": "/icons/snacks/36px-Joja_Corn.png",
        "iconAlt": "Joja Corn icon"
      },
      {
        "name": "Sour Slimes",
        "iconSrc": "/icons/snacks/36px-Sour_Slimes.png",
        "iconAlt": "Sour Slimes icon"
      }
    ]
  },
  {
    "name": "Linus",
    "iconSrc": "/icons/portraits/Linus.png",
    "iconAlt": "Linus portrait icon",
    "birthday": [
      {
        "date": "Winter 3",
        "iconSrc": "/icons/36px-Winter.png"
      }
    ],
    "can_be_partner": "No",
    "gifts": [
      {
        "name": "Blueberry Tart",
        "iconSrc": "/icons/gifts/36px-Blueberry_Tart.png",
        "iconAlt": "Blueberry Tart icon"
      },
      {
        "name": "Cactus Fruit",
        "iconSrc": "/icons/gifts/36px-Cactus_Fruit.png",
        "iconAlt": "Cactus Fruit icon"
      },
      {
        "name": "Coconut",
        "iconSrc": "/icons/gifts/36px-Coconut.png",
        "iconAlt": "Coconut icon"
      },
      {
        "name": "Dish O' The Sea",
        "iconSrc": "/icons/gifts/36px-Dish_O'_The_Sea.png",
        "iconAlt": "Dish O' The Sea icon"
      },
      {
        "name": "Yam",
        "iconSrc": "/icons/gifts/36px-Yam.png",
        "iconAlt": "Yam icon"
      },
      {
        "name": "Leek",
        "iconSrc": "/icons/gifts/36px-Leek.png",
        "iconAlt": "Leek icon"
      }
    ],
    "loved_movies": [
      {
        "name": "He doesn't have loved movie",
        "iconSrc": "",
        "iconAlt": ""
      }
    ],
    "disliked_movies": [
      {
        "title": "It Howls In The Rain",
        "posterIcon": "/icons/movies/36px-'It_Howls_In_The_Rain'.png"
      },
      {
        "title": "Mysterium",
        "posterIcon": "/icons/movies/36px-'Mysterium'.png"
      },
      {
        "title": "Journey Of The Prairie King: The Motion Picture",
        "posterIcon": "/icons/movies/36px-'Journey_Of_The_Prairie_King_The_Motion_Picture'.png"
      },
      {
        "title": "The Brave Little Sapling",
        "posterIcon": "/icons/movies/36px-'The_Brave_Little_Sapling'.png"
      },
      {
        "title": "Natural Wonders: Exploring Our Vibrant World",
        "posterIcon": "/icons/movies/36px-'Natural_Wonders_Exploring_Our_Vibrant_World'.png"
      },
      {
        "title": "Wumbus",
        "posterIcon": "/icons/movies/36px-'Wumbus'.png"
      },
      {
        "title": "The Miracle At Coldstar Ranch",
        "posterIcon": "/icons/movies/36px-'The_Miracle_At_Coldstar_Ranch'.png"
      },
      {
        "title": "The Zuzu City Express",
        "posterIcon": "/icons/movies/36px-'The_Zuzu_City_Express'.png"
      }
    ],
    "loved_movie_snacks": [
      {
        "name": "Salmon Burger",
        "iconSrc": "/icons/snacks/36px-Salmon_Burger.png",
        "iconAlt": "Salmon Burger icon"
      },
      {
        "name": "Stardrop Sorbet",
        "iconSrc": "/icons/snacks/36px-Stardrop_Sorbet.png",
        "iconAlt": "Stardrop Sorbet icon"
      }
    ],
    "dislike_movie_snacks": [
      {
        "name": "Black Licorice",
        "iconSrc": "/icons/snacks/36px-Black_Licorice.png",
        "iconAlt": "Black Licorice icon"
      },
      {
        "name": "Joja Cola",
        "iconSrc": "/icons/snacks/36px-Joja_Cola.png",
        "iconAlt": "Joja Cola icon"
      },
      {
        "name": "Joja Corn",
        "iconSrc": "/icons/snacks/36px-Joja_Corn.png",
        "iconAlt": "Joja Corn icon"
      }
    ]
  },
  {
    "name": "Marnie",
    "iconSrc": "/icons/portraits/Marnie.png",
    "iconAlt": "Marnie portrait icon",
    "birthday": [
      {
        "date": "Fall 18",
        "iconSrc": "/icons/36px-Fall.png"
      }
    ],
    "can_be_partner": "No",
    "gifts": [
      {
        "name": "Diamond",
        "iconSrc": "/icons/gifts/36px-Diamond.png",
        "iconAlt": "Diamond icon"
      },

      {
        "name": "Farmer's Lunch",
        "iconSrc": "/icons/gifts/36px-Farmer's_Lunch.png",
        "iconAlt": "Farmer's Lunch icon"
      },
      {
        "name": "Pink Cake",
        "iconSrc": "/icons/gifts/36px-Pink_Cake.png",
        "iconAlt": "Pink Cake icon"
      },
      {
        "name": "Pumpkin Pie",
        "iconSrc": "/icons/gifts/36px-Pumpkin_Pie.png",
        "iconAlt": "Pumpkin Pie icon"
      }
    ],
    "loved_movies": [
      {
        "title": "The Miracle At Coldstar Ranch",
        "posterIcon": "/icons/movies/36px-'The_Miracle_At_Coldstar_Ranch'.png"
      }
    ],
    "disliked_movies": [
      {
        "name": "She doesn't have disliked movie",
        "iconSrc": "",
        "iconAlt": ""
      }
    ],
    "loved_movie_snacks": [
      {
        "name": "Ice Cream Sandwich",
        "iconSrc": "/icons/snacks/36px-Ice_Cream_Sandwich.png",
        "iconAlt": "Ice Cream Sandwich icon"
      },
      {
        "name": "Stardrop Sorbet",
        "iconSrc": "/icons/snacks/36px-Stardrop_Sorbet.png",
        "iconAlt": "Stardrop Sorbet icon"
      }
    ],
    "dislike_movie_snacks": [
      {
        "name": "Black Licorice",
        "iconSrc": "/icons/snacks/36px-Black_Licorice.png",
        "iconAlt": "Black Licorice icon"
      },
      {
        "name": "Fries",
        "iconSrc": "/icons/snacks/36px-Fries.png",
        "iconAlt": "Fries icon"
      },
      {
        "name": "Joja Cola",
        "iconSrc": "/icons/snacks/36px-Joja_Cola.png",
        "iconAlt": "Joja Cola icon"
      },
      {
        "name": "Joja Corn",
        "iconSrc": "/icons/snacks/36px-Joja_Corn.png",
        "iconAlt": "Joja Corn icon"
      },
      {
        "name": "Nachos",
        "iconSrc": "/icons/snacks/36px-Nachos.png",
        "iconAlt": "Nachos icon"
      },
      {
        "name": "Salted Peanuts",
        "iconSrc": "/icons/snacks/36px-Salted_Peanuts.png",
        "iconAlt": "Salted Peanuts icon"
      },
      {
        "name": "Truffle Popcorn",
        "iconSrc": "/icons/snacks/36px-Truffle_Popcorn.png",
        "iconAlt": "Truffle Popcorn icon"
      }
    ]
  },
  {
    "name": "Pam",
    "iconSrc": "/icons/portraits/Pam.png",
    "iconAlt": "Pam portrait icon",
    "birthday": [
      {
        "date": "Spring 18",
        "iconSrc": "/icons/36px-Spring.png"
      }
    ],
    "can_be_partner": "No",
    "gifts": [
      {
        "name": "Beer",
        "iconSrc": "/icons/gifts/36px-Beer.png",
        "iconAlt": "Beer icon"
      },
      {
        "name": "Cactus Fruit",
        "iconSrc": "/icons/gifts/36px-Cactus_Fruit.png",
        "iconAlt": "Cactus Fruit icon"
      },
      {
        "name": "Glazed Yams",
        "iconSrc": "/icons/gifts/36px-Glazed_Yams.png",
        "iconAlt": "Glazed Yams icon"
      },
      {
        "name": "Mead",
        "iconSrc": "/icons/gifts/36px-Mead.png",
        "iconAlt": "Mead icon"
      },
      {
        "name": "Pale Ale",
        "iconSrc": "/icons/gifts/36px-Pale_Ale.png",
        "iconAlt": "Pale Ale icon"
      },
      {
        "name": "Parsnip",
        "iconSrc": "/icons/gifts/36px-Parsnip.png",
        "iconAlt": "Parsnip icon"
      },
      {
        "name": "Parsnip Soup",
        "iconSrc": "/icons/gifts/36px-Parsnip_Soup.png",
        "iconAlt": "Parsnip Soup icon"
      },
      {
        "name": "Piña Colada",
        "iconSrc": "/icons/gifts/36px-Piña_Colada.png",
        "iconAlt": "Piña Colada icon"
      }
    ],
    "loved_movies": [
      {
        "name": "She doesn't have loved movie",
        "iconSrc": "",
        "iconAlt": ""
      }
    ],
    "disliked_movies": [
      {
        "name": "She doesn't have disliked movie",
        "iconSrc": "",
        "iconAlt": ""
      }
    ],
    "loved_movie_snacks": [
      {
        "name": "Nachos",
        "iconSrc": "/icons/snacks/36px-Nachos.png",
        "iconAlt": "Nachos icon"
      },
      {
        "name": "Stardrop Sorbet",
        "iconSrc": "/icons/snacks/36px-Stardrop_Sorbet.png",
        "iconAlt": "Stardrop Sorbet icon"
      }
    ],
    "dislike_movie_snacks": [
      {
        "name": "Apple Slices",
        "iconSrc": "/icons/snacks/36px-Apple_Slices.png",
        "iconAlt": "Apple Slices icon"
      },
      {
        "name": "Cappuccino Mousse Cake",
        "iconSrc": "/icons/snacks/36px-Cappuccino_Mousse_Cake.png",
        "iconAlt": "Cappuccino Mousse Cake icon"
      },
      {
        "name": "Black Licorice",
        "iconSrc": "/icons/snacks/36px-Black_Licorice.png",
        "iconAlt": "Black Licorice icon"
      },
      {
        "name": "Hummus Snack Pack",
        "iconSrc": "/icons/snacks/36px-Hummus_Snack_Pack.png",
        "iconAlt": "Hummus Snack Pack icon"
      },
      {
        "name": "Jasmine Tea",
        "iconSrc": "/icons/snacks/36px-Jasmine_Tea.png",
        "iconAlt": "Jasmine Tea icon"
      },
      {
        "name": "Kale_Smoothie",
        "iconSrc": "/icons/snacks/36px-Kale_Smoothie.png",
        "iconAlt": "Kale Smoothie icon"
      },
      {
        "name": "Panzanella Salad",
        "iconSrc": "/icons/snacks/36px-Panzanella_Salad.png",
        "iconAlt": "Panzanella Salad icon"
      }
    ]
  },

  {
    "name": "Pierre",
    "iconSrc": "/icons/portraits/Pierre.png",
    "iconAlt": "Pierre portrait icon",
    "birthday": [
      {
        "date": "Spring 26",
        "iconSrc": "/icons/36px-Spring.png"
      }
    ],
    "can_be_partner": "No",
    "gifts": [
      {
        "name": "Fried Calamari",
        "iconSrc": "/icons/gifts/36px-Fried_Calamari.png",
        "iconAlt": "Fried Calamari icon"
      },
      {
        "name": "Daffodil",
        "iconSrc": "/icons/36px-Daffodil.png",
        "iconAlt": "Daffodil icon"
      }
    ],
    "loved_movies": [
      {
        "title": "Wumbus",
        "posterIcon": "/icons/movies/36px-'Wumbus'.png"
      }
    ],
    "disliked_movies": [
      {
        "name": "He doesn't have disliked movie",
        "iconSrc": "",
        "iconAlt": ""
      }
    ],
    "loved_movie_snacks": [
      {
        "name": "Personal Pizza",
        "iconSrc": "/icons/snacks/36px-Personal_Pizza.png",
        "iconAlt": "Personal Pizza icon"
      },
      {
        "name": "Stardrop Sorbet",
        "iconSrc": "/icons/snacks/36px-Stardrop_Sorbet.png",
        "iconAlt": "Stardrop Sorbet icon"
      }
    ],
    "dislike_movie_snacks": [
      {
        "name": "Black Licorice",
        "iconSrc": "/icons/snacks/36px-Black_Licorice.png",
        "iconAlt": "Black Licorice icon"
      },
      {
        "name": "Joja Cola",
        "iconSrc": "/icons/snacks/36px-Joja_Cola.png",
        "iconAlt": "Joja Cola icon"
      },
      {
        "name": "Joja Corn",
        "iconSrc": "/icons/snacks/36px-Joja_Corn.png",
        "iconAlt": "Joja Corn icon"
      }
    ]
  },
  {
    "name": "Robin",
    "iconSrc": "/icons/portraits/Robin.png",
    "iconAlt": "Robin portrait icon",
    "birthday": [
      {
        "date": "Fall 21",
        "iconSrc": "/icons/36px-Fall.png"
      }
    ],
    "can_be_partner": "No",
    "gifts": [
      {
        "name": "Goat Cheese",
        "iconSrc": "/icons/gifts/36px-Goat_Cheese.png",
        "iconAlt": "Goat Cheese icon"
      },
      {
        "name": "Peach",
        "iconSrc": "/icons/gifts/36px-Peach.png",
        "iconAlt": "Peach icon"
      },
      {
        "name": "Spaghetti",
        "iconSrc": "/icons/gifts/36px-Spaghetti.png",
        "iconAlt": "Spaghetti icon"
      }
    ],
    "loved_movies": [
      {
        "title": "Journey Of The Prairie King: The Motion Picture",
        "posterIcon": "/icons/movies/36px-'Journey_Of_The_Prairie_King_The_Motion_Picture'.png"
      }
    ],
    "disliked_movies": [
      {
        "name": "She doesn't have disliked movie",
        "iconSrc": "",
        "iconAlt": ""
      }
    ],
    "loved_movie_snacks": [
      {
        "name": "Salted Peanuts",
        "iconSrc": "/icons/snacks/36px-Salted_Peanuts.png",
        "iconAlt": "Salted Peanuts icon"
      },
      {
        "name": "Stardrop Sorbet",
        "iconSrc": "/icons/snacks/36px-Stardrop_Sorbet.png",
        "iconAlt": "Stardrop Sorbet icon"
      }
    ],
    "dislike_movie_snacks": [
      {
        "name": "Black Licorice",
        "iconSrc": "/icons/snacks/36px-Black_Licorice.png",
        "iconAlt": "Black Licorice icon"
      },
      {
        "name": "Joja Cola",
        "iconSrc": "/icons/snacks/36px-Joja_Cola.png",
        "iconAlt": "Joja Cola icon"
      },
      {
        "name": "Joja Corn",
        "iconSrc": "/icons/snacks/36px-Joja_Corn.png",
        "iconAlt": "Joja Corn icon"
      },
      {
        "name": "Sour Slimes",
        "iconSrc": "/icons/snacks/36px-Sour_Slimes.png",
        "iconAlt": "Sour Slimes icon"
      },
      {
        "name": "Cotton Candy",
        "iconSrc": "/icons/snacks/36px-Cotton_Candy.png",
        "iconAlt": "Cotton Candy icon"
      },
      {
        "name": "Jawbreaker",
        "iconSrc": "/icons/snacks/36px-Jawbreaker.png",
        "iconAlt": "Jawbreaker icon"
      },
      {
        "name": "Rock Candy",
        "iconSrc": "/icons/snacks/36px-Rock_Candy.png",
        "iconAlt": "Rock Candy icon"
      }
    ]
  },
  {
    "name": "Sandy",
    "iconSrc": "/icons/portraits/Sandy.png",
    "iconAlt": "Sandy portrait icon",
    "birthday": [
      {
        "date": "Fall 15",
        "iconSrc": "/icons/36px-Fall.png"
      }
    ],
    "can_be_partner": "No",
    "gifts": [
      {
        "name": "Cactus Fruit",
        "iconSrc": "/icons/gifts/36px-Cactus_Fruit.png",
        "iconAlt": "Cactus Fruit icon"
      },
      {
        "name": "Daffodil",
        "iconSrc": "/icons/36px-Daffodil.png",
        "iconAlt": "Daffodil icon"
      },
      {
        "name": "Mango Sticky Rice",
        "iconSrc": "/icons/gifts/36px-Mango_Sticky_Rice.png",
        "iconAlt": "Mango Sticky Rice icon"
      },
      {
        "name": "Sweet Pea",
        "iconSrc": "/icons/gifts/36px-Sweet_Pea.png",
        "iconAlt": "Sweet Pea icon"
      }
    ],
    "loved_movies": [
      {
        "title": "It Howls In The Rain",
        "posterIcon": "/icons/movies/36px-'It_Howls_In_The_Rain'.png"
      },
      {
        "title": "Mysterium",
        "posterIcon": "/icons/movies/36px-'Mysterium'.png"
      },
      {
        "title": "Journey Of The Prairie King: The Motion Picture",
        "posterIcon": "/icons/movies/36px-'Journey_Of_The_Prairie_King_The_Motion_Picture'.png"
      },
      {
        "title": "The Brave Little Sapling",
        "posterIcon": "/icons/movies/36px-'The_Brave_Little_Sapling'.png"
      },
      {
        "title": "Natural Wonders: Exploring Our Vibrant World",
        "posterIcon": "/icons/movies/36px-'Natural_Wonders_Exploring_Our_Vibrant_World'.png"
      },
      {
        "title": "Wumbus",
        "posterIcon": "/icons/movies/36px-'Wumbus'.png"
      },
      {
        "title": "The Miracle At Coldstar Ranch",
        "posterIcon": "/icons/movies/36px-'The_Miracle_At_Coldstar_Ranch'.png"
      },
      {
        "title": "The Zuzu City Express",
        "posterIcon": "/icons/movies/36px-'The_Zuzu_City_Express'.png"
      }
    ],
    "disliked_movies": [
      {
        "name": "She doesn't have disliked movie",
        "iconSrc": "",
        "iconAlt": ""
      }
    ],
    "loved_movie_snacks": [
      {
        "name": "Cotton Candy",
        "iconSrc": "/icons/snacks/36px-Cotton_Candy.png",
        "iconAlt": "Cotton Candy icon"
      },
      {
        "name": "Stardrop Sorbet",
        "iconSrc": "/icons/snacks/36px-Stardrop_Sorbet.png",
        "iconAlt": "Stardrop Sorbet icon"
      }
    ],
    "dislike_movie_snacks": [
      {
        "name": "Black Licorice",
        "iconSrc": "/icons/snacks/36px-Black_Licorice.png",
        "iconAlt": "Black Licorice icon"
      },
      {
        "name": "Joja Cola",
        "iconSrc": "/icons/snacks/36px-Joja_Cola.png",
        "iconAlt": "Joja Cola icon"
      },
      {
        "name": "Joja Corn",
        "iconSrc": "/icons/snacks/36px-Joja_Corn.png",
        "iconAlt": "Joja Corn icon"
      },
      {
        "name": "Sour Slimes",
        "iconSrc": "/icons/snacks/36px-Sour_Slimes.png",
        "iconAlt": "Sour Slimes icon"
      }
    ]
  },
  {
    "name": "Vincent",
    "iconSrc": "/icons/portraits/Vincent.png",
    "iconAlt": "Vincent portrait icon",
    "birthday": [
      {
        "date": "Spring 10",
        "iconSrc": "/icons/36px-Spring.png"
      }
    ],
    "can_be_partner": "No",
    "gifts": [
      {
        "name": "Cranberry Candy",
        "iconSrc": "/icons/gifts/36px-Cranberry_Candy.png",
        "iconAlt": "Cranberry Candy icon"
      },
      {
        "name": "Ginger Ale",
        "iconSrc": "/icons/gifts/36px-Ginger_Ale.png",
        "iconAlt": "Ginger Ale icon"
      },
      {
        "name": "Grape",
        "iconSrc": "/icons/gifts/36px-Grape.png",
        "iconAlt": "Grape icon"
      },
      {
        "name": "Snail",
        "iconSrc": "/icons/gifts/36px-Snail.png",
        "iconAlt": "Sweet Snail icon"
      },
      {
        "name": "Pink Cake",
        "iconSrc": "/icons/gifts/36px-Pink_Cake.png",
        "iconAlt": "Pink Cake icon"
      }
    ],
    "loved_movies": [
      {
        "title": "Journey Of The Prairie King: The Motion Picture",
        "posterIcon": "/icons/movies/36px-'Journey_Of_The_Prairie_King_The_Motion_Picture'.png"
      },
      {
        "title": "The Brave Little Sapling",
        "posterIcon": "/icons/movies/36px-'The_Brave_Little_Sapling'.png"
      },
      {
        "title": "Wumbus",
        "posterIcon": "/icons/movies/36px-'Wumbus'.png"
      }
    ],
    "disliked_movies": [
      {
        "title": "It Howls In The Rain",
        "posterIcon": "/icons/movies/36px-'It_Howls_In_The_Rain'.png"
      },
      {
        "title": "Mysterium",
        "posterIcon": "/icons/movies/36px-'Mysterium'.png"
      },
      {
        "title": "The Miracle At Coldstar Ranch",
        "posterIcon": "/icons/movies/36px-'The_Miracle_At_Coldstar_Ranch'.png"
      },
      {
        "title": "The Zuzu City Express",
        "posterIcon": "/icons/movies/36px-'The_Zuzu_City_Express'.png"
      },
      {
        "title": "Natural Wonders: Exploring Our Vibrant World",
        "posterIcon": "icons/movies/36px-'Natural_Wonders_Exploring_Our_Vibrant_World'.png"
      }
    ],
    "loved_movie_snacks": [
      {
        "name": "Jawbreaker",
        "iconSrc": "/icons/snacks/36px-Jawbreaker.png",
        "iconAlt": "Jawbreaker icon"
      },
      {
        "name": "Stardrop Sorbet",
        "iconSrc": "/icons/snacks/36px-Stardrop_Sorbet.png",
        "iconAlt": "Stardrop Sorbet icon"
      }
    ],
    "dislike_movie_snacks": [
      {
        "name": "Black Licorice",
        "iconSrc": "/icons/snacks/36px-Black_Licorice.png",
        "iconAlt": "Black Licorice icon"
      },
      {
        "name": "Joja Cola",
        "iconSrc": "/icons/snacks/36px-Joja_Cola.png",
        "iconAlt": "Joja Cola icon"
      },
      {
        "name": "Joja Corn",
        "iconSrc": "/icons/snacks/36px-Joja_Corn.png",
        "iconAlt": "Joja Corn icon"
      },
      {
        "name": "Jasmine Tea",
        "iconSrc": "/icons/snacks/36px-Jasmine_Tea.png",
        "iconAlt": "Jasmine Tea icon"
      },
      {
        "name": "Kale_Smoothie",
        "iconSrc": "/icons/snacks/36px-Kale_Smoothie.png",
        "iconAlt": "Kale Smoothie icon"
      },
      {
        "name": "Panzanella Salad",
        "iconSrc": "/icons/snacks/36px-Panzanella_Salad.png",
        "iconAlt": "Panzanella Salad icon"
      },
      {
        "name": "Truffle Popcorn",
        "iconSrc": "/icons/snacks/36px-Truffle_Popcorn.png",
        "iconAlt": "Truffle Popcorn icon"
      },
      {
        "name": "Hummus Snack Pack",
        "iconSrc": "/icons/snacks/36px-Hummus_Snack_Pack.png",
        "iconAlt": "Hummus Snack Pack icon"
      }
    ]
  },
  {
    "name": "Willy",
    "iconSrc": "/icons/portraits/Willy.png",
    "iconAlt": "Willy portrait icon",
    "birthday": [
      {
        "date": "Summer 24",
        "iconSrc": "/icons/36px-Summer.png"
      }
    ],
    "can_be_partner": "No",
    "gifts": [
      {
        "name": "Diamond",
        "iconSrc": "/icons/gifts/36px-Diamond.png",
        "iconAlt": "Diamond icon"
      },
      {
        "name": "Iridium Bar",
        "iconSrc": "/icons/gifts/36px-Iridium_Bar.png",
        "iconAlt": "Iridium Bar icon"
      },
      {
        "name": "Pumpkin",
        "iconSrc": "/icons/gifts/36px-Pumpkin.png",
        "iconAlt": "Pumpkin icon"
      },
      {
        "name": "Catfish",
        "iconSrc": "/icons/gifts/36px-Catfish.png",
        "iconAlt": "Catfish icon"
      },
      {
        "name": "Mead",
        "iconSrc": "/icons/gifts/36px-Mead.png",
        "iconAlt": "Mead icon"
      },
      {
        "name": "Sturgeon",
        "iconSrc": "/icons/gifts/36px-Sturgeon.png",
        "iconAlt": "Sturgeon icon"
      },

      {
        "name": "Octopus",
        "iconSrc": "/icons/gifts/36px-Octopus.png",
        "iconAlt": "Octopus icon"
      },

      {
        "name": "Sea Cucumber",
        "iconSrc": "/icons/gifts/36px-Sea_Cucumber.png",
        "iconAlt": "Sea Cucumber icon"
      }
    ],
    "loved_movies": [
      {
        "name": "He doesn't have loved movie",
        "iconSrc": "",
        "iconAlt": ""
      }
    ],
    "disliked_movies": [
      {
        "name": "He doesn't have disliked movie",
        "iconSrc": "",
        "iconAlt": ""
      }
    ],
    "loved_movie_snacks": [
      {
        "name": "Salmon Burger",
        "iconSrc": "/icons/snacks/36px-Salmon_Burger.png",
        "iconAlt": "Salmon Burger icon"
      },
      {
        "name": "Stardrop Sorbet",
        "iconSrc": "/icons/snacks/36px-Stardrop_Sorbet.png",
        "iconAlt": "Stardrop Sorbet icon"
      }
    ],
    "dislike_movie_snacks": [
      {
        "name": "Everything else",
        "iconSrc": "",
        "iconAlt": ""
      }
    ]
  },
  {
    "name": "Wizard",
    "iconSrc": "/icons/portraits/Wizard.png",
    "iconAlt": "Wizard portrait icon",
    "birthday": [
      {
        "date": "Winter 17",
        "iconSrc": "/icons/36px-Winter.png"
      }
    ],
    "can_be_partner": "No",
    "gifts": [
      {
        "name": "Purple Mushroom",
        "iconSrc": "/icons/gifts/36px-Purple_Mushroom.png",
        "iconAlt": "Purple Mushroom icon"
      },
      {
        "name": "Solar Essence",
        "iconSrc": "/icons/gifts/36px-Solar_Essence.png",
        "iconAlt": "Solar Essence icon"
      },
      {
        "name": "Void Essence",
        "iconSrc": "/icons/gifts/36px-Void_Essence.png",
        "iconAlt": "Void Essence icon"
      },
      {
        "name": "Super Cucumber",
        "iconSrc": "/icons/gifts/36px-Super_Cucumber.png",
        "iconAlt": "Super Cucumber icon"
      }
    ],
    "loved_movies": [
      {
        "title": "Mysterium",
        "posterIcon": "/icons/movies/36px-'Mysterium'.png"
      }
    ],
    "disliked_movies": [
      {
        "title": "It Howls In The Rain",
        "posterIcon": "/icons/movies/36px-'It_Howls_In_The_Rain'.png"
      },
      {
        "title": "Journey Of The Prairie King: The Motion Picture",
        "posterIcon": "/icons/movies/36px-'Journey_Of_The_Prairie_King_The_Motion_Picture'.png"
      },
      {
        "title": "The Brave Little Sapling",
        "posterIcon": "/icons/movies/36px-'The_Brave_Little_Sapling'.png"
      },
      {
        "title": "Natural Wonders: Exploring Our Vibrant World",
        "posterIcon": "/icons/movies/36px-'Natural_Wonders_Exploring_Our_Vibrant_World'.png"
      },
      {
        "title": "Wumbus",
        "posterIcon": "/icons/movies/36px-'Wumbus'.png"
      },
      {
        "title": "The Miracle At Coldstar Ranch",
        "posterIcon": "/icons/movies/36px-'The_Miracle_At_Coldstar_Ranch'.png"
      },
      {
        "title": "The Zuzu City Express",
        "posterIcon": "/icons/movies/36px-'The_Zuzu_City_Express'.png"
      }
    ],
    "loved_movie_snacks": [
      {
        "name": "Black Licorice",
        "iconSrc": "/icons/snacks/36px-Black_Licorice.png",
        "iconAlt": "Black Licorice icon"
      },
      {
        "name": "Star Cookie",
        "iconSrc": "/icons/snacks/36px-Star_Cookie.png",
        "iconAlt": "Star Cookie icon"
      },
      {
        "name": "Stardrop Sorbet",
        "iconSrc": "/icons/snacks/36px-Stardrop_Sorbet.png",
        "iconAlt": "Stardrop Sorbet icon"
      }
    ],
    "dislike_movie_snacks": [
      {
        "name": "Everything else",
        "iconSrc": "",
        "iconAlt": ""
      }
    ]
  }
]
